leftArm	 a 	 d 	 alpha 	 offset
leftShoulderPitch 0.00000000 0.10000000 -1.57079633 0.00000000
leftShoulderRoll 0.00000000 0.09800000 1.57079633 0.00000000
leftElbowYaw 0.00000000 0.00000000 1.57079633 1.57079633
leftElbowRoll 0.00000000 0.10500000 -1.57079633 0.00000000
leftWristYaw 0.00000000 0.00000000 1.57079633 0.00000000
leftEE 0.00000000 0.00000000 -1.57079633 3.14159265

rightArm	 a 	 d 	 alpha 	 offset
rightShoulderPitch 0.00000000 0.10000000 -1.57079633 0.00000000
rightShoulderRoll 0.00000000 -0.09800000 1.57079633 0.00000000
rightElbowYaw 0.00000000 0.00000000 1.57079633 1.57079633
rightElbowRoll 0.00000000 0.10500000 -1.57079633 0.00000000
rightWristYaw 0.00000000 0.00000000 1.57079633 0.00000000
rightEE 0.00000000 0.00000000 -1.57079633 3.14159265

head	 a 	 d 	 alpha 	 offset
headYaw 0.00000000 0.12650000 0.00000000 0.00000000
headPitch 0.00000000 0.00000000 -1.57079633 0.00000000
headEE 0.00000000 0.00000000 0.00000000 0.00000000

leftIndex	 x 	 y 	 z 	 alfa 	 beta 	 gama
LFinger11 0.06907000 0.01157000 -0.00304000 0.00000000 0.00000000 0.00000000
LFinger12 0.01436000 0.00000000 0.00000000 0.00000000 0.00000000 0.00000000
LFinger13 0.01436000 0.00000000 0.00000000 0.00000000 0.00000000 0.00000000

rightIndex	 x 	 y 	 z 	 alfa 	 beta 	 gama
RFinger11 0.06907000 0.01157000 -0.00304000 0.00000000 0.00000000 0.00000000
RFinger12 0.01436000 0.00000000 0.00000000 0.00000000 0.00000000 0.00000000
RFinger13 0.01436000 0.00000000 0.00000000 0.00000000 0.00000000 0.00000000

leftMiddle	 x 	 y 	 z 	 alfa 	 beta 	 gama
LFinger21 0.06907000 -0.01157000 -0.00304000 0.00000000 0.00000000 0.00000000
LFinger22 0.01436000 0.00000000 0.00000000 0.00000000 0.00000000 0.00000000
LFinger23 0.01436000 0.00000000 0.00000000 0.00000000 0.00000000 0.00000000

rightMiddle	 x 	 y 	 z 	 alfa 	 beta 	 gama
RFinger21 0.06907000 -0.01157000 -0.00304000 0.00000000 0.00000000 0.00000000
RFinger22 0.01436000 0.00000000 0.00000000 0.00000000 0.00000000 0.00000000
RFinger23 0.01436000 0.00000000 0.00000000 0.00000000 0.00000000 0.00000000

leftThumb	 x 	 y 	 z 	 alfa 	 beta 	 gama
LThumb1 0.04895000 0.00000000 -0.02638000 0.00000000 0.00000000 0.00000000
LThumb2 0.01436000 0.00000000 0.00000000 0.00000000 0.00000000 0.00000000

rightThumb	 x 	 y 	 z 	 alfa 	 beta 	 gama
RThumb1 0.04895000 0.00000000 -0.02638000 0.00000000 0.00000000 0.00000000
RThumb2 0.01436000 0.00000000 0.00000000 0.00000000 0.00000000 0.00000000

leftFinger	 x 	 y 	 z 	 alfa 	 beta 	 gama
leftFinger -0.00735618 -0.08602951 0.06039617 0.00000000 0.00000000 0.00000000

rightFinger	 x 	 y 	 z 	 alfa 	 beta 	 gama
rightFinger 0.00923274 -0.09669695 0.06433406 0.00000000 0.00000000 0.00000000

rightArmSkin	 x(a) 	 y(d) 	 z(alfa) 	 alfa(offset) 	 beta(-) 	 gama(-)
rightPlastic 0.01206055 -0.00431689 2.65415072 -1.52138398 NaN   NaN  
rightUpperPatch 0.03282902 0.03226046 0.02005367 0.23440193 -0.14168993 0.01009229
rightLowerPatch 0.02366448 -0.00827957 -0.03372031 0.13692442 0.06114667 0.15743776
rightTriangle0 0.00100000 -0.00100000 -0.00100000 -0.15703835 0.00543765 -0.13426390
rightTriangle1 0.00786380 -0.01385459 0.01091298 0.04629035 -0.15707963 -0.03574146
rightTriangle2 -0.00035589 -0.02798302 0.01520347 -0.05651721 0.04463966 0.05882879
rightTriangle3 0.00928489 -0.04411136 0.01221714 -0.15652998 -0.15597835 0.15707839
rightTriangle4 0.02899810 -0.04578335 0.01182319 -0.12527546 -0.06011232 -0.11142346
rightTriangle5 0.03858133 -0.05853725 0.00355600 0.00000000 0.00000000 0.00000000
rightTriangle6 0.05786743 -0.05875438 0.00533018 0.00000000 0.00000000 0.00000000
rightTriangle7 0.06773607 -0.04421386 0.01466018 0.00744156 -0.12935822 -0.14752365
rightTriangle8 0.05782578 -0.02813700 0.01826311 -0.03562704 -0.04134087 -0.14447011
rightTriangle9 0.06573607 -0.01375211 0.01609562 0.15706738 0.09846226 -0.15634661
rightTriangle10 0.05686743 -0.00021157 0.00633018 0.15707963 -0.15654802 0.15707963
rightTriangle11 0.03858133 0.00057130 0.00355600 0.00000000 0.00000000 0.00000000
rightTriangle12 0.02717148 -0.01276966 0.01369222 0.00716655 -0.15707876 0.15707963
rightTriangle13 0.03858910 -0.02864406 0.01790671 0.15670324 -0.10918256 -0.07325200
rightTriangle14 0.03019503 0.00828272 -0.01196366 0.00000000 0.00000000 0.00000000
rightTriangle15 0.01196055 0.00641455 -0.01331586 0.03282301 0.04523371 0.15707574
rightTriangle19 0.00023902 0.00027918 -0.00100000 -0.14490804 0.09469902 0.07876815
rightTriangle20 0.00022011 0.01934094 -0.00007508 -0.01376933 0.06690919 0.03926130
rightTriangle21 0.01709880 0.02858776 0.00220663 -0.13682854 0.01735966 0.00274552
rightTriangle22 0.01804779 -0.00794085 0.00345316 0.15179683 0.12428454 0.15707963
rightTriangle23 0.01716488 -0.02155951 0.01648793 0.15707659 0.15706761 -0.15707560
rightTriangle25 0.03445866 0.00100256 -0.00142252 0.15707737 -0.13084280 0.08291100
rightTriangle26 0.03409508 0.02012852 -0.00142242 -0.15704039 -0.08266340 -0.01668109
rightTriangle31 0.01910194 0.04269097 0.01688476 -0.15705906 0.15698852 -0.15707675
rightTaxel0_0 -0.00565776 0.00198575 -0.00259357 0.00000000 0.00000000 0.00000000
rightTaxel0_1 -0.00565710 0.00595863 -0.00778252 0.00000000 0.00000000 0.00000000
rightTaxel0_2 0.00000066 0.00397288 -0.00518894 0.00000000 0.00000000 0.00000000
rightTaxel0_3 0.00000000 0.00000000 0.00000000 0.00000000 0.00000000 0.00000000
rightTaxel0_4 0.00565929 0.00198682 -0.00259497 0.00000000 0.00000000 0.00000000
rightTaxel0_5 0.01131705 0.00000107 -0.00000140 0.00000000 0.00000000 0.00000000
rightTaxel0_7 0.00565776 -0.00198575 0.00259357 0.00000000 0.00000000 0.00000000
rightTaxel0_8 -0.00000066 -0.00397288 0.00518894 0.00000000 0.00000000 0.00000000
rightTaxel0_9 -0.00565845 -0.00595812 0.00778185 0.00000000 0.00000000 0.00000000
rightTaxel0_11 -0.00565929 -0.00198682 0.00259497 0.00000000 0.00000000 0.00000000
rightTaxel1_0 -0.00565774 -0.00293591 0.00143198 0.00000000 0.00000000 0.00000000
rightTaxel1_1 -0.01131705 0.00000151 -0.00000073 0.00000000 0.00000000 0.00000000
rightTaxel1_2 -0.00565931 0.00293741 -0.00143271 0.00000000 0.00000000 0.00000000
rightTaxel1_3 0.00000000 0.00000000 0.00000000 0.00000000 0.00000000 0.00000000
rightTaxel1_4 -0.00000071 0.00587377 -0.00286491 0.00000000 0.00000000 0.00000000
rightTaxel1_5 0.00565702 0.00880968 -0.00429689 0.00000000 0.00000000 0.00000000
rightTaxel1_7 0.00565774 0.00293591 -0.00143198 0.00000000 0.00000000 0.00000000
rightTaxel1_8 0.00565931 -0.00293741 0.00143271 0.00000000 0.00000000 0.00000000
rightTaxel1_9 0.00565852 -0.00880885 0.00429648 0.00000000 0.00000000 0.00000000
rightTaxel1_11 0.00000071 -0.00587377 0.00286491 0.00000000 0.00000000 0.00000000
rightTaxel2_0 -0.00565776 0.00325852 0.00022786 0.00000000 0.00000000 0.00000000
rightTaxel2_1 -0.00565710 0.00977780 0.00068373 0.00000000 0.00000000 0.00000000
rightTaxel2_2 0.00000066 0.00651928 0.00045587 0.00000000 0.00000000 0.00000000
rightTaxel2_3 0.00000000 0.00000000 0.00000000 0.00000000 0.00000000 0.00000000
rightTaxel2_4 0.00565929 0.00326027 0.00022798 0.00000000 0.00000000 0.00000000
rightTaxel2_5 0.01131705 0.00000175 0.00000012 0.00000000 0.00000000 0.00000000
rightTaxel2_7 0.00565776 -0.00325852 -0.00022786 0.00000000 0.00000000 0.00000000
rightTaxel2_8 -0.00000066 -0.00651928 -0.00045587 0.00000000 0.00000000 0.00000000
rightTaxel2_9 -0.00565845 -0.00977696 -0.00068367 0.00000000 0.00000000 0.00000000
rightTaxel2_11 -0.00565929 -0.00326027 -0.00022798 0.00000000 0.00000000 0.00000000
rightTaxel3_0 -0.00565774 -0.00293591 -0.00143198 0.00000000 0.00000000 0.00000000
rightTaxel3_1 -0.01131705 0.00000151 0.00000073 0.00000000 0.00000000 0.00000000
rightTaxel3_2 -0.00565931 0.00293741 0.00143271 0.00000000 0.00000000 0.00000000
rightTaxel3_3 0.00000000 0.00000000 0.00000000 0.00000000 0.00000000 0.00000000
rightTaxel3_4 -0.00000071 0.00587377 0.00286491 0.00000000 0.00000000 0.00000000
rightTaxel3_5 0.00565702 0.00880968 0.00429689 0.00000000 0.00000000 0.00000000
rightTaxel3_7 0.00565774 0.00293591 0.00143198 0.00000000 0.00000000 0.00000000
rightTaxel3_8 0.00565931 -0.00293741 -0.00143271 0.00000000 0.00000000 0.00000000
rightTaxel3_9 0.00565852 -0.00880885 -0.00429648 0.00000000 0.00000000 0.00000000
rightTaxel3_11 0.00000071 -0.00587377 -0.00286491 0.00000000 0.00000000 0.00000000
rightTaxel4_0 0.00000000 -0.00591554 -0.00277244 0.00000000 0.00000000 0.00000000
rightTaxel4_1 -0.00566000 -0.00887377 -0.00415888 0.00000000 0.00000000 0.00000000
rightTaxel4_2 -0.00566000 -0.00295822 -0.00138643 0.00000000 0.00000000 0.00000000
rightTaxel4_3 0.00000000 0.00000000 0.00000000 0.00000000 0.00000000 0.00000000
rightTaxel4_4 -0.00566000 0.00295822 0.00138643 0.00000000 0.00000000 0.00000000
rightTaxel4_5 -0.00566000 0.00887377 0.00415888 0.00000000 0.00000000 0.00000000
rightTaxel4_7 0.00000000 0.00591554 0.00277244 0.00000000 0.00000000 0.00000000
rightTaxel4_8 0.00566000 0.00295822 0.00138643 0.00000000 0.00000000 0.00000000
rightTaxel4_9 0.01131700 0.00000000 0.00000000 0.00000000 0.00000000 0.00000000
rightTaxel4_11 0.00566000 -0.00295822 -0.00138643 0.00000000 0.00000000 0.00000000
rightTaxel5_0 -0.00565774 -0.00214449 -0.00246399 0.00000000 0.00000000 0.00000000
rightTaxel5_1 -0.01131705 0.00000110 0.00000126 0.00000000 0.00000000 0.00000000
rightTaxel5_2 -0.00565931 0.00214559 0.00246526 0.00000000 0.00000000 0.00000000
rightTaxel5_3 0.00000000 0.00000000 0.00000000 0.00000000 0.00000000 0.00000000
rightTaxel5_4 -0.00000071 0.00429042 0.00492963 0.00000000 0.00000000 0.00000000
rightTaxel5_5 0.00565702 0.00643491 0.00739362 0.00000000 0.00000000 0.00000000
rightTaxel5_7 0.00565774 0.00214449 0.00246399 0.00000000 0.00000000 0.00000000
rightTaxel5_8 0.00565931 -0.00214559 -0.00246526 0.00000000 0.00000000 0.00000000
rightTaxel5_9 0.00565852 -0.00643430 -0.00739292 0.00000000 0.00000000 0.00000000
rightTaxel5_11 0.00000071 -0.00429042 -0.00492963 0.00000000 0.00000000 0.00000000
rightTaxel6_0 0.00000000 -0.00443129 -0.00480039 0.00000000 0.00000000 0.00000000
rightTaxel6_1 -0.00566000 -0.00664727 -0.00720096 0.00000000 0.00000000 0.00000000
rightTaxel6_2 -0.00566000 -0.00221598 -0.00240056 0.00000000 0.00000000 0.00000000
rightTaxel6_3 0.00000000 0.00000000 0.00000000 0.00000000 0.00000000 0.00000000
rightTaxel6_4 -0.00566000 0.00221598 0.00240056 0.00000000 0.00000000 0.00000000
rightTaxel6_5 -0.00566000 0.00664727 0.00720096 0.00000000 0.00000000 0.00000000
rightTaxel6_7 0.00000000 0.00443129 0.00480039 0.00000000 0.00000000 0.00000000
rightTaxel6_8 0.00566000 0.00221598 0.00240056 0.00000000 0.00000000 0.00000000
rightTaxel6_9 0.01131700 0.00000000 0.00000000 0.00000000 0.00000000 0.00000000
rightTaxel6_11 0.00566000 -0.00221598 -0.00240056 0.00000000 0.00000000 0.00000000
rightTaxel7_0 0.00565774 -0.00299533 -0.00130312 0.00000000 0.00000000 0.00000000
rightTaxel7_1 0.00565702 -0.00898798 -0.00391023 0.00000000 0.00000000 0.00000000
rightTaxel7_2 -0.00000071 -0.00599265 -0.00260711 0.00000000 0.00000000 0.00000000
rightTaxel7_3 0.00000000 0.00000000 0.00000000 0.00000000 0.00000000 0.00000000
rightTaxel7_4 -0.00565931 -0.00299686 -0.00130379 0.00000000 0.00000000 0.00000000
rightTaxel7_5 -0.01131705 -0.00000154 -0.00000067 0.00000000 0.00000000 0.00000000
rightTaxel7_7 -0.00565774 0.00299533 0.00130312 0.00000000 0.00000000 0.00000000
rightTaxel7_8 0.00000071 0.00599265 0.00260711 0.00000000 0.00000000 0.00000000
rightTaxel7_9 0.00565852 0.00898713 0.00390986 0.00000000 0.00000000 0.00000000
rightTaxel7_11 0.00565931 0.00299686 0.00130379 0.00000000 0.00000000 0.00000000
rightTaxel8_0 0.00000000 -0.00651709 -0.00045572 0.00000000 0.00000000 0.00000000
rightTaxel8_1 -0.00566000 -0.00977613 -0.00068361 0.00000000 0.00000000 0.00000000
rightTaxel8_2 -0.00566000 -0.00325904 -0.00022789 0.00000000 0.00000000 0.00000000
rightTaxel8_3 0.00000000 0.00000000 0.00000000 0.00000000 0.00000000 0.00000000
rightTaxel8_4 -0.00566000 0.00325904 0.00022789 0.00000000 0.00000000 0.00000000
rightTaxel8_5 -0.00566000 0.00977613 0.00068361 0.00000000 0.00000000 0.00000000
rightTaxel8_7 0.00000000 0.00651709 0.00045572 0.00000000 0.00000000 0.00000000
rightTaxel8_8 0.00566000 0.00325904 0.00022789 0.00000000 0.00000000 0.00000000
rightTaxel8_9 0.01131700 0.00000000 0.00000000 0.00000000 0.00000000 0.00000000
rightTaxel8_11 0.00566000 -0.00325904 -0.00022789 0.00000000 0.00000000 0.00000000
rightTaxel9_0 0.00565774 -0.00299533 0.00130312 0.00000000 0.00000000 0.00000000
rightTaxel9_1 0.00565702 -0.00898798 0.00391023 0.00000000 0.00000000 0.00000000
rightTaxel9_2 -0.00000071 -0.00599265 0.00260711 0.00000000 0.00000000 0.00000000
rightTaxel9_3 0.00000000 0.00000000 0.00000000 0.00000000 0.00000000 0.00000000
rightTaxel9_4 -0.00565931 -0.00299686 0.00130379 0.00000000 0.00000000 0.00000000
rightTaxel9_5 -0.01131705 -0.00000154 0.00000067 0.00000000 0.00000000 0.00000000
rightTaxel9_7 -0.00565774 0.00299533 -0.00130312 0.00000000 0.00000000 0.00000000
rightTaxel9_8 0.00000071 0.00599265 -0.00260711 0.00000000 0.00000000 0.00000000
rightTaxel9_9 0.00565852 0.00898713 -0.00390986 0.00000000 0.00000000 0.00000000
rightTaxel9_11 0.00565931 0.00299686 -0.00130379 0.00000000 0.00000000 0.00000000
rightTaxel10_0 0.00565776 0.00221562 -0.00240018 0.00000000 0.00000000 0.00000000
rightTaxel10_1 0.01131705 -0.00000119 0.00000129 0.00000000 0.00000000 0.00000000
rightTaxel10_2 0.00565929 -0.00221682 0.00240147 0.00000000 0.00000000 0.00000000
rightTaxel10_3 0.00000000 0.00000000 0.00000000 0.00000000 0.00000000 0.00000000
rightTaxel10_4 0.00000066 -0.00443278 0.00480201 0.00000000 0.00000000 0.00000000
rightTaxel10_5 -0.00565710 -0.00664841 0.00720219 0.00000000 0.00000000 0.00000000
rightTaxel10_7 -0.00565776 -0.00221562 0.00240018 0.00000000 0.00000000 0.00000000
rightTaxel10_8 -0.00565929 0.00221682 -0.00240147 0.00000000 0.00000000 0.00000000
rightTaxel10_9 -0.00565845 0.00664784 -0.00720157 0.00000000 0.00000000 0.00000000
rightTaxel10_11 -0.00000066 0.00443278 -0.00480201 0.00000000 0.00000000 0.00000000
rightTaxel11_0 0.00000005 0.00428897 -0.00492796 0.00000000 0.00000000 0.00000000
rightTaxel11_1 0.00566007 0.00643375 -0.00739229 0.00000000 0.00000000 0.00000000
rightTaxel11_2 0.00566002 0.00214479 -0.00246433 0.00000000 0.00000000 0.00000000
rightTaxel11_3 0.00000000 0.00000000 0.00000000 0.00000000 0.00000000 0.00000000
rightTaxel11_4 0.00565998 -0.00214484 0.00246439 0.00000000 0.00000000 0.00000000
rightTaxel11_5 0.00565993 -0.00643381 0.00739235 0.00000000 0.00000000 0.00000000
rightTaxel11_7 -0.00000005 -0.00428897 0.00492796 0.00000000 0.00000000 0.00000000
rightTaxel11_8 -0.00566002 -0.00214479 0.00246433 0.00000000 0.00000000 0.00000000
rightTaxel11_9 -0.01131700 0.00000005 -0.00000006 0.00000000 0.00000000 0.00000000
rightTaxel11_11 -0.00565998 0.00214484 -0.00246439 0.00000000 0.00000000 0.00000000
rightTaxel12_0 0.00000000 -0.00591554 0.00277244 0.00000000 0.00000000 0.00000000
rightTaxel12_1 -0.00566000 -0.00887377 0.00415888 0.00000000 0.00000000 0.00000000
rightTaxel12_2 -0.00566000 -0.00295822 0.00138643 0.00000000 0.00000000 0.00000000
rightTaxel12_3 0.00000000 0.00000000 0.00000000 0.00000000 0.00000000 0.00000000
rightTaxel12_4 -0.00566000 0.00295822 -0.00138643 0.00000000 0.00000000 0.00000000
rightTaxel12_5 -0.00566000 0.00887377 -0.00415888 0.00000000 0.00000000 0.00000000
rightTaxel12_7 0.00000000 0.00591554 -0.00277244 0.00000000 0.00000000 0.00000000
rightTaxel12_8 0.00566000 0.00295822 -0.00138643 0.00000000 0.00000000 0.00000000
rightTaxel12_9 0.01131700 0.00000000 0.00000000 0.00000000 0.00000000 0.00000000
rightTaxel12_11 0.00566000 -0.00295822 0.00138643 0.00000000 0.00000000 0.00000000
rightTaxel13_0 -0.00565774 -0.00325856 -0.00022786 0.00000000 0.00000000 0.00000000
rightTaxel13_1 -0.01131705 0.00000167 0.00000012 0.00000000 0.00000000 0.00000000
rightTaxel13_2 -0.00565931 0.00326023 0.00022798 0.00000000 0.00000000 0.00000000
rightTaxel13_3 0.00000000 0.00000000 0.00000000 0.00000000 0.00000000 0.00000000
rightTaxel13_4 -0.00000071 0.00651928 0.00045587 0.00000000 0.00000000 0.00000000
rightTaxel13_5 0.00565702 0.00977784 0.00068373 0.00000000 0.00000000 0.00000000
rightTaxel13_7 0.00565774 0.00325856 0.00022786 0.00000000 0.00000000 0.00000000
rightTaxel13_8 0.00565931 -0.00326023 -0.00022798 0.00000000 0.00000000 0.00000000
rightTaxel13_9 0.00565852 -0.00977692 -0.00068367 0.00000000 0.00000000 0.00000000
rightTaxel13_11 0.00000071 -0.00651928 -0.00045587 0.00000000 0.00000000 0.00000000
rightTaxel14_0 0.00565776 0.00086911 -0.00314873 0.00000000 0.00000000 0.00000000
rightTaxel14_1 0.01131705 -0.00000047 0.00000170 0.00000000 0.00000000 0.00000000
rightTaxel14_2 0.00565929 -0.00086958 0.00315042 0.00000000 0.00000000 0.00000000
rightTaxel14_3 0.00000000 0.00000000 0.00000000 0.00000000 0.00000000 0.00000000
rightTaxel14_4 0.00000066 -0.00173882 0.00629963 0.00000000 0.00000000 0.00000000
rightTaxel14_5 -0.00565710 -0.00260793 0.00944836 0.00000000 0.00000000 0.00000000
rightTaxel14_7 -0.00565776 -0.00086911 0.00314873 0.00000000 0.00000000 0.00000000
rightTaxel14_8 -0.00565929 0.00086958 -0.00315042 0.00000000 0.00000000 0.00000000
rightTaxel14_9 -0.00565845 0.00260771 -0.00944755 0.00000000 0.00000000 0.00000000
rightTaxel14_11 -0.00000066 0.00173882 -0.00629963 0.00000000 0.00000000 0.00000000
rightTaxel15_0 0.00000005 0.00144112 -0.00637207 0.00000000 0.00000000 0.00000000
rightTaxel15_1 0.00566007 0.00216178 -0.00955855 0.00000000 0.00000000 0.00000000
rightTaxel15_2 0.00566002 0.00072066 -0.00318648 0.00000000 0.00000000 0.00000000
rightTaxel15_3 0.00000000 0.00000000 0.00000000 0.00000000 0.00000000 0.00000000
rightTaxel15_4 0.00565998 -0.00072068 0.00318656 0.00000000 0.00000000 0.00000000
rightTaxel15_5 0.00565993 -0.00216180 0.00955863 0.00000000 0.00000000 0.00000000
rightTaxel15_7 -0.00000005 -0.00144112 0.00637207 0.00000000 0.00000000 0.00000000
rightTaxel15_8 -0.00566002 -0.00072066 0.00318648 0.00000000 0.00000000 0.00000000
rightTaxel15_9 -0.01131700 0.00000002 -0.00000008 0.00000000 0.00000000 0.00000000
rightTaxel15_11 -0.00565998 0.00072068 -0.00318656 0.00000000 0.00000000 0.00000000
rightTaxel19_0 -0.00326647 -0.00544028 0.00155357 0.00000000 0.00000000 0.00000000
rightTaxel19_1 0.00000176 -0.01088203 0.00310757 0.00000000 0.00000000 0.00000000
rightTaxel19_2 0.00326823 -0.00544175 0.00155399 0.00000000 0.00000000 0.00000000
rightTaxel19_3 0.00000000 0.00000000 0.00000000 0.00000000 0.00000000 0.00000000
rightTaxel19_4 0.00653520 -0.00000064 0.00000018 0.00000000 0.00000000 0.00000000
rightTaxel19_5 0.00980168 0.00543964 -0.00155339 0.00000000 0.00000000 0.00000000
rightTaxel19_7 0.00326647 0.00544028 -0.00155357 0.00000000 0.00000000 0.00000000
rightTaxel19_8 -0.00326823 0.00544175 -0.00155399 0.00000000 0.00000000 0.00000000
rightTaxel19_9 -0.00980084 0.00544095 -0.00155376 0.00000000 0.00000000 0.00000000
rightTaxel19_11 -0.00653520 0.00000064 -0.00000018 0.00000000 0.00000000 0.00000000
rightTaxel20_0 -0.00653300 -0.00000002 -0.00000000 0.00000000 0.00000000 0.00000000
rightTaxel20_1 -0.00979999 -0.00544246 -0.00155419 0.00000000 0.00000000 0.00000000
rightTaxel20_2 -0.00326699 -0.00544244 -0.00155419 0.00000000 0.00000000 0.00000000
rightTaxel20_3 0.00000000 0.00000000 0.00000000 0.00000000 0.00000000 0.00000000
rightTaxel20_4 0.00326701 -0.00544243 -0.00155419 0.00000000 0.00000000 0.00000000
rightTaxel20_5 0.00980001 -0.00544241 -0.00155418 0.00000000 0.00000000 0.00000000
rightTaxel20_7 0.00653300 0.00000002 0.00000000 0.00000000 0.00000000 0.00000000
rightTaxel20_8 0.00326699 0.00544244 0.00155419 0.00000000 0.00000000 0.00000000
rightTaxel20_9 -0.00000003 0.01088199 0.00310755 0.00000000 0.00000000 0.00000000
rightTaxel20_11 -0.00326701 0.00544243 0.00155419 0.00000000 0.00000000 0.00000000
rightTaxel21_0 -0.00326647 -0.00489261 -0.00284124 0.00000000 0.00000000 0.00000000
rightTaxel21_1 0.00000176 -0.00978654 -0.00568324 0.00000000 0.00000000 0.00000000
rightTaxel21_2 0.00326823 -0.00489393 -0.00284201 0.00000000 0.00000000 0.00000000
rightTaxel21_3 0.00000000 0.00000000 0.00000000 0.00000000 0.00000000 0.00000000
rightTaxel21_4 0.00653520 -0.00000057 -0.00000033 0.00000000 0.00000000 0.00000000
rightTaxel21_5 0.00980168 0.00489203 0.00284090 0.00000000 0.00000000 0.00000000
rightTaxel21_7 0.00326647 0.00489261 0.00284124 0.00000000 0.00000000 0.00000000
rightTaxel21_8 -0.00326823 0.00489393 0.00284201 0.00000000 0.00000000 0.00000000
rightTaxel21_9 -0.00980084 0.00489321 0.00284159 0.00000000 0.00000000 0.00000000
rightTaxel21_11 -0.00653520 0.00000057 0.00000033 0.00000000 0.00000000 0.00000000
rightTaxel22_0 0.00326649 -0.00489260 0.00284123 0.00000000 0.00000000 0.00000000
rightTaxel22_1 0.00980169 -0.00489201 0.00284089 0.00000000 0.00000000 0.00000000
rightTaxel22_2 0.00653520 0.00000059 -0.00000034 0.00000000 0.00000000 0.00000000
rightTaxel22_3 0.00000000 0.00000000 0.00000000 0.00000000 0.00000000 0.00000000
rightTaxel22_4 0.00326822 0.00489394 -0.00284201 0.00000000 0.00000000 0.00000000
rightTaxel22_5 0.00000173 0.00978654 -0.00568324 0.00000000 0.00000000 0.00000000
rightTaxel22_7 -0.00326649 0.00489260 -0.00284123 0.00000000 0.00000000 0.00000000
rightTaxel22_8 -0.00653520 -0.00000059 0.00000034 0.00000000 0.00000000 0.00000000
rightTaxel22_9 -0.00980082 -0.00489323 0.00284160 0.00000000 0.00000000 0.00000000
rightTaxel22_11 -0.00326822 -0.00489394 0.00284201 0.00000000 0.00000000 0.00000000
rightTaxel23_0 0.00653300 0.00000000 0.00000000 0.00000000 0.00000000 0.00000000
rightTaxel23_1 0.00980000 0.00284598 -0.00489244 0.00000000 0.00000000 0.00000000
rightTaxel23_2 0.00326700 0.00284598 -0.00489244 0.00000000 0.00000000 0.00000000
rightTaxel23_3 0.00000000 0.00000000 0.00000000 0.00000000 0.00000000 0.00000000
rightTaxel23_4 -0.00326700 0.00284598 -0.00489244 0.00000000 0.00000000 0.00000000
rightTaxel23_5 -0.00980000 0.00284598 -0.00489244 0.00000000 0.00000000 0.00000000
rightTaxel23_7 -0.00653300 0.00000000 0.00000000 0.00000000 0.00000000 0.00000000
rightTaxel23_8 -0.00326700 -0.00284598 0.00489244 0.00000000 0.00000000 0.00000000
rightTaxel23_9 0.00000000 -0.00569046 0.00978229 0.00000000 0.00000000 0.00000000
rightTaxel23_11 0.00326700 -0.00284598 0.00489244 0.00000000 0.00000000 0.00000000
rightTaxel25_0 -0.00326647 -0.00546494 0.00146447 0.00000000 0.00000000 0.00000000
rightTaxel25_1 0.00000176 -0.01093136 0.00292934 0.00000000 0.00000000 0.00000000
rightTaxel25_2 0.00326823 -0.00546642 0.00146487 0.00000000 0.00000000 0.00000000
rightTaxel25_3 0.00000000 0.00000000 0.00000000 0.00000000 0.00000000 0.00000000
rightTaxel25_4 0.00653520 -0.00000064 0.00000017 0.00000000 0.00000000 0.00000000
rightTaxel25_5 0.00980168 0.00546430 -0.00146430 0.00000000 0.00000000 0.00000000
rightTaxel25_7 0.00326647 0.00546494 -0.00146447 0.00000000 0.00000000 0.00000000
rightTaxel25_8 -0.00326823 0.00546642 -0.00146487 0.00000000 0.00000000 0.00000000
rightTaxel25_9 -0.00980084 0.00546561 -0.00146465 0.00000000 0.00000000 0.00000000
rightTaxel25_11 -0.00653520 0.00000064 -0.00000017 0.00000000 0.00000000 0.00000000
rightTaxel26_0 -0.00653300 -0.00000002 -0.00000000 0.00000000 0.00000000 0.00000000
rightTaxel26_1 -0.00979999 -0.00546713 -0.00146506 0.00000000 0.00000000 0.00000000
rightTaxel26_2 -0.00326699 -0.00546711 -0.00146506 0.00000000 0.00000000 0.00000000
rightTaxel26_3 0.00000000 0.00000000 0.00000000 0.00000000 0.00000000 0.00000000
rightTaxel26_4 0.00326701 -0.00546710 -0.00146505 0.00000000 0.00000000 0.00000000
rightTaxel26_5 0.00980001 -0.00546708 -0.00146505 0.00000000 0.00000000 0.00000000
rightTaxel26_7 0.00653300 0.00000002 0.00000000 0.00000000 0.00000000 0.00000000
rightTaxel26_8 0.00326699 0.00546711 0.00146506 0.00000000 0.00000000 0.00000000
rightTaxel26_9 -0.00000003 0.01093131 0.00292933 0.00000000 0.00000000 0.00000000
rightTaxel26_11 -0.00326701 0.00546710 0.00146505 0.00000000 0.00000000 0.00000000
rightTaxel31_0 -0.00653300 -0.00000001 -0.00000001 0.00000000 0.00000000 0.00000000
rightTaxel31_1 -0.00979999 -0.00284600 -0.00489246 0.00000000 0.00000000 0.00000000
rightTaxel31_2 -0.00326699 -0.00284599 -0.00489245 0.00000000 0.00000000 0.00000000
rightTaxel31_3 0.00000000 0.00000000 0.00000000 0.00000000 0.00000000 0.00000000
rightTaxel31_4 0.00326701 -0.00284598 -0.00489243 0.00000000 0.00000000 0.00000000
rightTaxel31_5 0.00980001 -0.00284597 -0.00489242 0.00000000 0.00000000 0.00000000
rightTaxel31_7 0.00653300 0.00000001 0.00000001 0.00000000 0.00000000 0.00000000
rightTaxel31_8 0.00326699 0.00284599 0.00489245 0.00000000 0.00000000 0.00000000
rightTaxel31_9 -0.00000003 0.00569046 0.00978229 0.00000000 0.00000000 0.00000000
rightTaxel31_11 -0.00326701 0.00284598 0.00489243 0.00000000 0.00000000 0.00000000

leftArmSkin	 x(a) 	 y(d) 	 z(alfa) 	 alfa(offset) 	 beta(-) 	 gama(-)
leftPlastic 0.01261009 -0.00460651 -3.01828111 -1.58430065 NaN   NaN  
leftUpperPatch 0.05949441 -0.03433085 0.01630612 -0.00755770 0.05442666 -0.32382734
leftLowerPatch 0.05438389 0.00836257 -0.03690905 0.00897172 0.10816669 0.01017435
leftTriangle0 0.00020678 -0.00002848 -0.00099989 -0.02074961 0.08288349 -0.15625115
leftTriangle1 0.01928610 -0.00021713 0.00177418 0.00000000 0.00000000 0.00000000
leftTriangle2 0.02915474 0.01232343 0.01252190 -0.06997814 -0.11968720 0.07849462
leftTriangle3 0.01732928 0.02855431 0.01370181 -0.15707963 -0.15707963 0.15707963
leftTriangle4 0.02815474 0.04578515 0.01205895 0.00000000 0.00000000 0.00000000
leftTriangle5 0.01864561 0.05832568 0.00277418 0.15707963 0.15707963 0.15707963
leftTriangle6 0.00000000 0.05910855 0.00000000 0.00000000 0.00000000 0.00000000
leftTriangle7 -0.01140985 0.04472031 0.00848047 0.05711616 -0.15548593 -0.15707963
leftTriangle8 -0.02971754 0.04568266 0.00766114 0.00000000 0.00000000 0.00000000
leftTriangle9 -0.04064695 0.02899595 0.00964771 -0.15419305 -0.15692075 0.06900047
leftTriangle10 -0.03071754 0.01412086 0.00809311 -0.15707963 0.02059623 -0.15707963
leftTriangle11 -0.03858133 0.00057130 -0.00355600 0.00000000 0.00000000 0.00000000
leftTriangle12 -0.00940985 0.01238825 0.00897629 0.15707963 -0.15707963 0.04362164
leftTriangle13 -0.00083446 0.02855429 0.01402617 0.15707948 -0.14860646 0.04136940
leftTriangle14 -0.02662210 -0.00784323 -0.01669737 0.09683793 0.09468333 -0.13293660
leftTriangle15 -0.00938631 -0.00671142 -0.01451967 -0.02081314 0.15707963 -0.15700030
leftTriangle19 -0.00056585 0.00100000 -0.00039007 0.09038800 0.03081494 0.09407358
leftTriangle20 -0.00096948 -0.01967117 -0.00082072 0.15679349 0.00260480 -0.12573103
leftTriangle21 -0.01573778 -0.02798117 0.00387562 -0.15707963 -0.15498399 0.15704102
leftTriangle22 -0.01541087 0.00794392 0.00587558 -0.15707836 -0.15707963 0.15707963
leftTriangle23 -0.01538943 0.02156257 0.01730719 0.15668984 0.15707963 0.15707963
leftTriangle25 -0.03300033 -0.00010952 0.00192755 -0.14654344 0.11881830 0.01358830
leftTriangle26 -0.03445863 -0.02012850 0.00342241 0.12424646 0.15707963 -0.14963147
leftTriangle31 -0.01635672 -0.04068803 0.01730720 0.15704568 -0.15707962 -0.15707963
leftTaxel0_0 0.00565930 -0.00214560 -0.00246527 0.00000000 0.00000000 0.00000000
leftTaxel0_1 0.00565850 -0.00643431 -0.00739293 0.00000000 0.00000000 0.00000000
leftTaxel0_2 0.00000070 -0.00429042 -0.00492963 0.00000000 0.00000000 0.00000000
leftTaxel0_3 0.00000000 0.00000000 0.00000000 0.00000000 0.00000000 0.00000000
leftTaxel0_4 -0.00565774 -0.00214448 -0.00246398 0.00000000 0.00000000 0.00000000
leftTaxel0_5 -0.01131705 0.00000112 0.00000129 0.00000000 0.00000000 0.00000000
leftTaxel0_7 -0.00565930 0.00214560 0.00246527 0.00000000 0.00000000 0.00000000
leftTaxel0_8 -0.00000070 0.00429042 0.00492963 0.00000000 0.00000000 0.00000000
leftTaxel0_9 0.00565705 0.00643490 0.00739361 0.00000000 0.00000000 0.00000000
leftTaxel0_11 0.00565774 0.00214448 0.00246398 0.00000000 0.00000000 0.00000000
leftTaxel1_0 0.00566001 0.00221597 0.00240055 0.00000000 0.00000000 0.00000000
leftTaxel1_1 0.01131700 -0.00000002 -0.00000002 0.00000000 0.00000000 0.00000000
leftTaxel1_2 0.00565999 -0.00221599 -0.00240057 0.00000000 0.00000000 0.00000000
leftTaxel1_3 0.00000000 0.00000000 0.00000000 0.00000000 0.00000000 0.00000000
leftTaxel1_4 -0.00000002 -0.00443129 -0.00480039 0.00000000 0.00000000 0.00000000
leftTaxel1_5 -0.00566002 -0.00664726 -0.00720095 0.00000000 0.00000000 0.00000000
leftTaxel1_7 -0.00566001 -0.00221597 -0.00240055 0.00000000 0.00000000 0.00000000
leftTaxel1_8 -0.00565999 0.00221599 0.00240057 0.00000000 0.00000000 0.00000000
leftTaxel1_9 -0.00565998 0.00664728 0.00720097 0.00000000 0.00000000 0.00000000
leftTaxel1_11 0.00000002 0.00443129 0.00480039 0.00000000 0.00000000 0.00000000
leftTaxel2_0 0.00565929 -0.00299690 -0.00130381 0.00000000 0.00000000 0.00000000
leftTaxel2_1 0.00565845 -0.00898717 -0.00390988 0.00000000 0.00000000 0.00000000
leftTaxel2_2 0.00000066 -0.00599265 -0.00260711 0.00000000 0.00000000 0.00000000
leftTaxel2_3 0.00000000 0.00000000 0.00000000 0.00000000 0.00000000 0.00000000
leftTaxel2_4 -0.00565776 -0.00299529 -0.00130310 0.00000000 0.00000000 0.00000000
leftTaxel2_5 -0.01131705 0.00000161 0.00000070 0.00000000 0.00000000 0.00000000
leftTaxel2_7 -0.00565929 0.00299690 0.00130381 0.00000000 0.00000000 0.00000000
leftTaxel2_8 -0.00000066 0.00599265 0.00260711 0.00000000 0.00000000 0.00000000
leftTaxel2_9 0.00565710 0.00898794 0.00391022 0.00000000 0.00000000 0.00000000
leftTaxel2_11 0.00565776 0.00299529 0.00130310 0.00000000 0.00000000 0.00000000
leftTaxel3_0 0.00566001 0.00325903 -0.00022789 0.00000000 0.00000000 0.00000000
leftTaxel3_1 0.01131700 -0.00000003 0.00000000 0.00000000 0.00000000 0.00000000
leftTaxel3_2 0.00565999 -0.00325906 0.00022790 0.00000000 0.00000000 0.00000000
leftTaxel3_3 0.00000000 0.00000000 0.00000000 0.00000000 0.00000000 0.00000000
leftTaxel3_4 -0.00000002 -0.00651709 0.00045572 0.00000000 0.00000000 0.00000000
leftTaxel3_5 -0.00566002 -0.00977611 0.00068361 0.00000000 0.00000000 0.00000000
leftTaxel3_7 -0.00566001 -0.00325903 0.00022789 0.00000000 0.00000000 0.00000000
leftTaxel3_8 -0.00565999 0.00325906 -0.00022790 0.00000000 0.00000000 0.00000000
leftTaxel3_9 -0.00565998 0.00977614 -0.00068361 0.00000000 0.00000000 0.00000000
leftTaxel3_11 0.00000002 0.00651709 -0.00045572 0.00000000 0.00000000 0.00000000
leftTaxel4_0 0.00000073 0.00599265 -0.00260711 0.00000000 0.00000000 0.00000000
leftTaxel4_1 0.00565855 0.00898712 -0.00390986 0.00000000 0.00000000 0.00000000
leftTaxel4_2 0.00565932 0.00299685 -0.00130378 0.00000000 0.00000000 0.00000000
leftTaxel4_3 0.00000000 0.00000000 0.00000000 0.00000000 0.00000000 0.00000000
leftTaxel4_4 0.00565773 -0.00299534 0.00130313 0.00000000 0.00000000 0.00000000
leftTaxel4_5 0.00565700 -0.00898799 0.00391024 0.00000000 0.00000000 0.00000000
leftTaxel4_7 -0.00000073 -0.00599265 0.00260711 0.00000000 0.00000000 0.00000000
leftTaxel4_8 -0.00565932 -0.00299685 0.00130378 0.00000000 0.00000000 0.00000000
leftTaxel4_9 -0.01131705 -0.00000151 0.00000066 0.00000000 0.00000000 0.00000000
leftTaxel4_11 -0.00565773 0.00299534 -0.00130313 0.00000000 0.00000000 0.00000000
leftTaxel5_0 0.00565998 0.00221601 -0.00240060 0.00000000 0.00000000 0.00000000
leftTaxel5_1 0.01131700 0.00000006 -0.00000006 0.00000000 0.00000000 0.00000000
leftTaxel5_2 0.00566002 -0.00221595 0.00240053 0.00000000 0.00000000 0.00000000
leftTaxel5_3 0.00000000 0.00000000 0.00000000 0.00000000 0.00000000 0.00000000
leftTaxel5_4 0.00000005 -0.00443129 0.00480039 0.00000000 0.00000000 0.00000000
leftTaxel5_5 -0.00565993 -0.00664730 0.00720099 0.00000000 0.00000000 0.00000000
leftTaxel5_7 -0.00565998 -0.00221601 0.00240060 0.00000000 0.00000000 0.00000000
leftTaxel5_8 -0.00566002 0.00221595 -0.00240053 0.00000000 0.00000000 0.00000000
leftTaxel5_9 -0.00566007 0.00664724 -0.00720093 0.00000000 0.00000000 0.00000000
leftTaxel5_11 -0.00000005 0.00443129 -0.00480039 0.00000000 0.00000000 0.00000000
leftTaxel6_0 0.00000066 0.00429042 -0.00492963 0.00000000 0.00000000 0.00000000
leftTaxel6_1 0.00565845 0.00643433 -0.00739296 0.00000000 0.00000000 0.00000000
leftTaxel6_2 0.00565929 0.00214562 -0.00246529 0.00000000 0.00000000 0.00000000
leftTaxel6_3 0.00000000 0.00000000 0.00000000 0.00000000 0.00000000 0.00000000
leftTaxel6_4 0.00565776 -0.00214447 0.00246396 0.00000000 0.00000000 0.00000000
leftTaxel6_5 0.00565710 -0.00643488 0.00739359 0.00000000 0.00000000 0.00000000
leftTaxel6_7 -0.00000066 -0.00429042 0.00492963 0.00000000 0.00000000 0.00000000
leftTaxel6_8 -0.00565929 -0.00214562 0.00246529 0.00000000 0.00000000 0.00000000
leftTaxel6_9 -0.01131705 -0.00000115 0.00000133 0.00000000 0.00000000 0.00000000
leftTaxel6_11 -0.00565776 0.00214447 -0.00246396 0.00000000 0.00000000 0.00000000
leftTaxel7_0 -0.00565933 0.00295928 -0.00138693 0.00000000 0.00000000 0.00000000
leftTaxel7_1 -0.00565857 0.00887446 -0.00415920 0.00000000 0.00000000 0.00000000
leftTaxel7_2 -0.00000074 0.00591754 -0.00277338 0.00000000 0.00000000 0.00000000
leftTaxel7_3 0.00000000 0.00000000 0.00000000 0.00000000 0.00000000 0.00000000
leftTaxel7_4 0.00565772 0.00295781 -0.00138624 0.00000000 0.00000000 0.00000000
leftTaxel7_5 0.01131705 -0.00000147 0.00000069 0.00000000 0.00000000 0.00000000
leftTaxel7_7 0.00565933 -0.00295928 0.00138693 0.00000000 0.00000000 0.00000000
leftTaxel7_8 0.00000074 -0.00591754 0.00277338 0.00000000 0.00000000 0.00000000
leftTaxel7_9 -0.00565698 -0.00887535 0.00415962 0.00000000 0.00000000 0.00000000
leftTaxel7_11 -0.00565772 -0.00295781 0.00138624 0.00000000 0.00000000 0.00000000
leftTaxel8_0 0.00000066 0.00587377 -0.00286491 0.00000000 0.00000000 0.00000000
leftTaxel8_1 0.00565845 0.00880889 -0.00429650 0.00000000 0.00000000 0.00000000
leftTaxel8_2 0.00565929 0.00293745 -0.00143273 0.00000000 0.00000000 0.00000000
leftTaxel8_3 0.00000000 0.00000000 0.00000000 0.00000000 0.00000000 0.00000000
leftTaxel8_4 0.00565776 -0.00293587 0.00143196 0.00000000 0.00000000 0.00000000
leftTaxel8_5 0.00565710 -0.00880964 0.00429687 0.00000000 0.00000000 0.00000000
leftTaxel8_7 -0.00000066 -0.00587377 0.00286491 0.00000000 0.00000000 0.00000000
leftTaxel8_8 -0.00565929 -0.00293745 0.00143273 0.00000000 0.00000000 0.00000000
leftTaxel8_9 -0.01131705 -0.00000158 0.00000077 0.00000000 0.00000000 0.00000000
leftTaxel8_11 -0.00565776 0.00293587 -0.00143196 0.00000000 0.00000000 0.00000000
leftTaxel9_0 -0.00565931 0.00326023 -0.00022798 0.00000000 0.00000000 0.00000000
leftTaxel9_1 -0.00565852 0.00977692 -0.00068367 0.00000000 0.00000000 0.00000000
leftTaxel9_2 -0.00000071 0.00651928 -0.00045587 0.00000000 0.00000000 0.00000000
leftTaxel9_3 0.00000000 0.00000000 0.00000000 0.00000000 0.00000000 0.00000000
leftTaxel9_4 0.00565774 0.00325856 -0.00022786 0.00000000 0.00000000 0.00000000
leftTaxel9_5 0.01131705 -0.00000167 0.00000012 0.00000000 0.00000000 0.00000000
leftTaxel9_7 0.00565931 -0.00326023 0.00022798 0.00000000 0.00000000 0.00000000
leftTaxel9_8 0.00000071 -0.00651928 0.00045587 0.00000000 0.00000000 0.00000000
leftTaxel9_9 -0.00565702 -0.00977784 0.00068373 0.00000000 0.00000000 0.00000000
leftTaxel9_11 -0.00565774 -0.00325856 0.00022786 0.00000000 0.00000000 0.00000000
leftTaxel10_0 -0.00566000 -0.00293634 -0.00143219 0.00000000 0.00000000 0.00000000
leftTaxel10_1 -0.01131700 0.00000000 0.00000000 0.00000000 0.00000000 0.00000000
leftTaxel10_2 -0.00566000 0.00293634 0.00143219 0.00000000 0.00000000 0.00000000
leftTaxel10_3 0.00000000 0.00000000 0.00000000 0.00000000 0.00000000 0.00000000
leftTaxel10_4 0.00000000 0.00587179 0.00286394 0.00000000 0.00000000 0.00000000
leftTaxel10_5 0.00566000 0.00880813 0.00429614 0.00000000 0.00000000 0.00000000
leftTaxel10_7 0.00566000 0.00293634 0.00143219 0.00000000 0.00000000 0.00000000
leftTaxel10_8 0.00566000 -0.00293634 -0.00143219 0.00000000 0.00000000 0.00000000
leftTaxel10_9 0.00566000 -0.00880813 -0.00429614 0.00000000 0.00000000 0.00000000
leftTaxel10_11 0.00000000 -0.00587179 -0.00286394 0.00000000 0.00000000 0.00000000
leftTaxel11_0 -0.00000068 -0.00397288 -0.00518894 0.00000000 0.00000000 0.00000000
leftTaxel11_1 -0.00565848 -0.00595811 -0.00778184 0.00000000 0.00000000 0.00000000
leftTaxel11_2 -0.00565930 -0.00198681 -0.00259496 0.00000000 0.00000000 0.00000000
leftTaxel11_3 0.00000000 0.00000000 0.00000000 0.00000000 0.00000000 0.00000000
leftTaxel11_4 -0.00565775 0.00198576 0.00259359 0.00000000 0.00000000 0.00000000
leftTaxel11_5 -0.00565707 0.00595864 0.00778253 0.00000000 0.00000000 0.00000000
leftTaxel11_7 0.00000068 0.00397288 0.00518894 0.00000000 0.00000000 0.00000000
leftTaxel11_8 0.00565930 0.00198681 0.00259496 0.00000000 0.00000000 0.00000000
leftTaxel11_9 0.01131705 0.00000105 0.00000137 0.00000000 0.00000000 0.00000000
leftTaxel11_11 0.00565775 -0.00198576 -0.00259359 0.00000000 0.00000000 0.00000000
leftTaxel12_0 0.00566001 0.00295821 0.00138643 0.00000000 0.00000000 0.00000000
leftTaxel12_1 0.01131700 -0.00000003 -0.00000001 0.00000000 0.00000000 0.00000000
leftTaxel12_2 0.00565999 -0.00295824 -0.00138644 0.00000000 0.00000000 0.00000000
leftTaxel12_3 0.00000000 0.00000000 0.00000000 0.00000000 0.00000000 0.00000000
leftTaxel12_4 -0.00000002 -0.00591554 -0.00277244 0.00000000 0.00000000 0.00000000
leftTaxel12_5 -0.00566002 -0.00887375 -0.00415887 0.00000000 0.00000000 0.00000000
leftTaxel12_7 -0.00566001 -0.00295821 -0.00138643 0.00000000 0.00000000 0.00000000
leftTaxel12_8 -0.00565999 0.00295824 0.00138644 0.00000000 0.00000000 0.00000000
leftTaxel12_9 -0.00565998 0.00887378 0.00415888 0.00000000 0.00000000 0.00000000
leftTaxel12_11 0.00000002 0.00591554 0.00277244 0.00000000 0.00000000 0.00000000
leftTaxel13_0 0.00565930 -0.00326024 0.00022798 0.00000000 0.00000000 0.00000000
leftTaxel13_1 0.00565850 -0.00977694 0.00068367 0.00000000 0.00000000 0.00000000
leftTaxel13_2 0.00000070 -0.00651928 0.00045587 0.00000000 0.00000000 0.00000000
leftTaxel13_3 0.00000000 0.00000000 0.00000000 0.00000000 0.00000000 0.00000000
leftTaxel13_4 -0.00565774 -0.00325854 0.00022786 0.00000000 0.00000000 0.00000000
leftTaxel13_5 -0.01131705 0.00000170 -0.00000012 0.00000000 0.00000000 0.00000000
leftTaxel13_7 -0.00565930 0.00326024 -0.00022798 0.00000000 0.00000000 0.00000000
leftTaxel13_8 -0.00000070 0.00651928 -0.00045587 0.00000000 0.00000000 0.00000000
leftTaxel13_9 0.00565705 0.00977783 -0.00068373 0.00000000 0.00000000 0.00000000
leftTaxel13_11 0.00565774 0.00325854 -0.00022786 0.00000000 0.00000000 0.00000000
leftTaxel14_0 -0.00566000 -0.00072067 -0.00318652 0.00000000 0.00000000 0.00000000
leftTaxel14_1 -0.01131700 0.00000000 0.00000000 0.00000000 0.00000000 0.00000000
leftTaxel14_2 -0.00566000 0.00072067 0.00318652 0.00000000 0.00000000 0.00000000
leftTaxel14_3 0.00000000 0.00000000 0.00000000 0.00000000 0.00000000 0.00000000
leftTaxel14_4 0.00000000 0.00144112 0.00637207 0.00000000 0.00000000 0.00000000
leftTaxel14_5 0.00566000 0.00216179 0.00955859 0.00000000 0.00000000 0.00000000
leftTaxel14_7 0.00566000 0.00072067 0.00318652 0.00000000 0.00000000 0.00000000
leftTaxel14_8 0.00566000 -0.00072067 -0.00318652 0.00000000 0.00000000 0.00000000
leftTaxel14_9 0.00566000 -0.00216179 -0.00955859 0.00000000 0.00000000 0.00000000
leftTaxel14_11 0.00000000 -0.00144112 -0.00637207 0.00000000 0.00000000 0.00000000
leftTaxel15_0 -0.00000071 -0.00173882 -0.00629963 0.00000000 0.00000000 0.00000000
leftTaxel15_1 -0.00565852 -0.00260770 -0.00944751 0.00000000 0.00000000 0.00000000
leftTaxel15_2 -0.00565931 -0.00086957 -0.00315038 0.00000000 0.00000000 0.00000000
leftTaxel15_3 0.00000000 0.00000000 0.00000000 0.00000000 0.00000000 0.00000000
leftTaxel15_4 -0.00565774 0.00086912 0.00314877 0.00000000 0.00000000 0.00000000
leftTaxel15_5 -0.00565702 0.00260794 0.00944840 0.00000000 0.00000000 0.00000000
leftTaxel15_7 0.00000071 0.00173882 0.00629963 0.00000000 0.00000000 0.00000000
leftTaxel15_8 0.00565931 0.00086957 0.00315038 0.00000000 0.00000000 0.00000000
leftTaxel15_9 0.01131705 0.00000045 0.00000162 0.00000000 0.00000000 0.00000000
leftTaxel15_11 0.00565774 -0.00086912 -0.00314877 0.00000000 0.00000000 0.00000000
leftTaxel19_0 0.00326701 0.00546710 0.00146505 0.00000000 0.00000000 0.00000000
leftTaxel19_1 0.00000003 0.01093131 0.00292933 0.00000000 0.00000000 0.00000000
leftTaxel19_2 -0.00326699 0.00546711 0.00146506 0.00000000 0.00000000 0.00000000
leftTaxel19_3 0.00000000 0.00000000 0.00000000 0.00000000 0.00000000 0.00000000
leftTaxel19_4 -0.00653300 0.00000002 0.00000000 0.00000000 0.00000000 0.00000000
leftTaxel19_5 -0.00980001 -0.00546708 -0.00146505 0.00000000 0.00000000 0.00000000
leftTaxel19_7 -0.00326701 -0.00546710 -0.00146505 0.00000000 0.00000000 0.00000000
leftTaxel19_8 0.00326699 -0.00546711 -0.00146506 0.00000000 0.00000000 0.00000000
leftTaxel19_9 0.00979999 -0.00546713 -0.00146506 0.00000000 0.00000000 0.00000000
leftTaxel19_11 0.00653300 -0.00000002 -0.00000000 0.00000000 0.00000000 0.00000000
leftTaxel20_0 0.00653520 0.00000064 -0.00000017 0.00000000 0.00000000 0.00000000
leftTaxel20_1 0.00980084 0.00546561 -0.00146465 0.00000000 0.00000000 0.00000000
leftTaxel20_2 0.00326823 0.00546642 -0.00146487 0.00000000 0.00000000 0.00000000
leftTaxel20_3 0.00000000 0.00000000 0.00000000 0.00000000 0.00000000 0.00000000
leftTaxel20_4 -0.00326647 0.00546494 -0.00146447 0.00000000 0.00000000 0.00000000
leftTaxel20_5 -0.00980168 0.00546430 -0.00146430 0.00000000 0.00000000 0.00000000
leftTaxel20_7 -0.00653520 -0.00000064 0.00000017 0.00000000 0.00000000 0.00000000
leftTaxel20_8 -0.00326823 -0.00546642 0.00146487 0.00000000 0.00000000 0.00000000
leftTaxel20_9 -0.00000176 -0.01093136 0.00292934 0.00000000 0.00000000 0.00000000
leftTaxel20_11 0.00326647 -0.00546494 0.00146447 0.00000000 0.00000000 0.00000000
leftTaxel21_0 0.00326701 0.00489454 -0.00284236 0.00000000 0.00000000 0.00000000
leftTaxel21_1 0.00000003 0.00978650 -0.00568322 0.00000000 0.00000000 0.00000000
leftTaxel21_2 -0.00326699 0.00489455 -0.00284237 0.00000000 0.00000000 0.00000000
leftTaxel21_3 0.00000000 0.00000000 0.00000000 0.00000000 0.00000000 0.00000000
leftTaxel21_4 -0.00653300 0.00000001 -0.00000001 0.00000000 0.00000000 0.00000000
leftTaxel21_5 -0.00980001 -0.00489452 0.00284235 0.00000000 0.00000000 0.00000000
leftTaxel21_7 -0.00326701 -0.00489454 0.00284236 0.00000000 0.00000000 0.00000000
leftTaxel21_8 0.00326699 -0.00489455 0.00284237 0.00000000 0.00000000 0.00000000
leftTaxel21_9 0.00979999 -0.00489457 0.00284237 0.00000000 0.00000000 0.00000000
leftTaxel21_11 0.00653300 -0.00000001 0.00000001 0.00000000 0.00000000 0.00000000
leftTaxel22_0 -0.00326820 0.00489394 0.00284201 0.00000000 0.00000000 0.00000000
leftTaxel22_1 -0.00980081 0.00489325 0.00284161 0.00000000 0.00000000 0.00000000
leftTaxel22_2 -0.00653520 0.00000060 0.00000035 0.00000000 0.00000000 0.00000000
leftTaxel22_3 0.00000000 0.00000000 0.00000000 0.00000000 0.00000000 0.00000000
leftTaxel22_4 -0.00326650 -0.00489259 -0.00284123 0.00000000 0.00000000 0.00000000
leftTaxel22_5 0.00000170 -0.00978654 -0.00568324 0.00000000 0.00000000 0.00000000
leftTaxel22_7 0.00326820 -0.00489394 -0.00284201 0.00000000 0.00000000 0.00000000
leftTaxel22_8 0.00653520 -0.00000060 -0.00000035 0.00000000 0.00000000 0.00000000
leftTaxel22_9 0.00980170 0.00489199 0.00284088 0.00000000 0.00000000 0.00000000
leftTaxel22_11 0.00326650 0.00489259 0.00284123 0.00000000 0.00000000 0.00000000
leftTaxel23_0 -0.00653520 -0.00000036 -0.00000061 0.00000000 0.00000000 0.00000000
leftTaxel23_1 -0.00980080 -0.00284524 -0.00489116 0.00000000 0.00000000 0.00000000
leftTaxel23_2 -0.00326819 -0.00284564 -0.00489185 0.00000000 0.00000000 0.00000000
leftTaxel23_3 0.00000000 0.00000000 0.00000000 0.00000000 0.00000000 0.00000000
leftTaxel23_4 0.00326651 -0.00284485 -0.00489048 0.00000000 0.00000000 0.00000000
leftTaxel23_5 0.00980172 -0.00284449 -0.00488987 0.00000000 0.00000000 0.00000000
leftTaxel23_7 0.00653520 0.00000036 0.00000061 0.00000000 0.00000000 0.00000000
leftTaxel23_8 0.00326819 0.00284564 0.00489185 0.00000000 0.00000000 0.00000000
leftTaxel23_9 0.00000168 0.00569049 0.00978233 0.00000000 0.00000000 0.00000000
leftTaxel23_11 -0.00326651 0.00284485 0.00489048 0.00000000 0.00000000 0.00000000
leftTaxel25_0 0.00326701 0.00544243 0.00155419 0.00000000 0.00000000 0.00000000
leftTaxel25_1 0.00000003 0.01088199 0.00310755 0.00000000 0.00000000 0.00000000
leftTaxel25_2 -0.00326699 0.00544244 0.00155419 0.00000000 0.00000000 0.00000000
leftTaxel25_3 0.00000000 0.00000000 0.00000000 0.00000000 0.00000000 0.00000000
leftTaxel25_4 -0.00653300 0.00000002 0.00000000 0.00000000 0.00000000 0.00000000
leftTaxel25_5 -0.00980001 -0.00544241 -0.00155418 0.00000000 0.00000000 0.00000000
leftTaxel25_7 -0.00326701 -0.00544243 -0.00155419 0.00000000 0.00000000 0.00000000
leftTaxel25_8 0.00326699 -0.00544244 -0.00155419 0.00000000 0.00000000 0.00000000
leftTaxel25_9 0.00979999 -0.00544246 -0.00155419 0.00000000 0.00000000 0.00000000
leftTaxel25_11 0.00653300 -0.00000002 -0.00000000 0.00000000 0.00000000 0.00000000
leftTaxel26_0 0.00653520 0.00000064 -0.00000018 0.00000000 0.00000000 0.00000000
leftTaxel26_1 0.00980084 0.00544095 -0.00155376 0.00000000 0.00000000 0.00000000
leftTaxel26_2 0.00326823 0.00544175 -0.00155399 0.00000000 0.00000000 0.00000000
leftTaxel26_3 0.00000000 0.00000000 0.00000000 0.00000000 0.00000000 0.00000000
leftTaxel26_4 -0.00326647 0.00544028 -0.00155357 0.00000000 0.00000000 0.00000000
leftTaxel26_5 -0.00980168 0.00543964 -0.00155339 0.00000000 0.00000000 0.00000000
leftTaxel26_7 -0.00653520 -0.00000064 0.00000018 0.00000000 0.00000000 0.00000000
leftTaxel26_8 -0.00326823 -0.00544175 0.00155399 0.00000000 0.00000000 0.00000000
leftTaxel26_9 -0.00000176 -0.01088203 0.00310757 0.00000000 0.00000000 0.00000000
leftTaxel26_11 0.00326647 -0.00544028 0.00155357 0.00000000 0.00000000 0.00000000
leftTaxel31_0 0.00653520 0.00000033 -0.00000057 0.00000000 0.00000000 0.00000000
leftTaxel31_1 0.00980084 0.00284521 -0.00489110 0.00000000 0.00000000 0.00000000
leftTaxel31_2 0.00326823 0.00284563 -0.00489183 0.00000000 0.00000000 0.00000000
leftTaxel31_3 0.00000000 0.00000000 0.00000000 0.00000000 0.00000000 0.00000000
leftTaxel31_4 -0.00326647 0.00284486 -0.00489050 0.00000000 0.00000000 0.00000000
leftTaxel31_5 -0.00980168 0.00284453 -0.00488993 0.00000000 0.00000000 0.00000000
leftTaxel31_7 -0.00653520 -0.00000033 0.00000057 0.00000000 0.00000000 0.00000000
leftTaxel31_8 -0.00326823 -0.00284563 0.00489183 0.00000000 0.00000000 0.00000000
leftTaxel31_9 -0.00000176 -0.00569049 0.00978233 0.00000000 0.00000000 0.00000000
leftTaxel31_11 0.00326647 -0.00284486 0.00489050 0.00000000 0.00000000 0.00000000

torsoSkin	 x(a) 	 y(d) 	 z(alfa) 	 alfa(offset) 	 beta(-) 	 gama(-)
torsoPlastic -0.00090368 0.00361815 0.03480217 0.06278206 NaN   NaN  
torsoLeftPatch 0.05999557 0.01748194 -0.00050744 -0.01624054 0.05829399 -0.09479586
torsoRightPatch 0.04627986 -0.04987005 -0.00088175 -0.03915153 0.11015714 -0.05848541
torsoTriangle0 0.00100000 -0.00100000 0.00100000 0.15707821 -0.15463520 -0.15706439
torsoTriangle1 -0.00127213 0.01546309 0.01062000 -0.03218618 0.06934743 0.05443410
torsoTriangle2 -0.01048093 0.03189737 0.00086026 -0.15707409 0.15707963 0.15607164
torsoTriangle3 -0.02027279 0.04328071 0.00976959 -0.15705485 0.15707963 -0.02825546
torsoTriangle4 -0.01612492 0.04393408 0.02799000 0.03143352 0.15706781 -0.15705295
torsoTriangle5 0.00337851 -0.01765774 0.06721210 0.15707273 0.12828067 -0.15606505
torsoTriangle8 -0.00347407 0.03134399 0.05780171 0.14312405 0.14720401 -0.10345829
torsoTriangle9 0.00098502 0.01582246 0.06835103 0.00379354 -0.15705769 -0.15706100
torsoTriangle10 0.00302375 0.00102399 0.05837133 -0.03500107 -0.15665426 0.01447010
torsoTriangle11 0.00363494 0.00083121 0.03849758 -0.08938229 -0.00690845 -0.00929470
torsoTriangle12 0.00136687 0.01576769 0.02845423 0.03853518 -0.02567118 0.01214418
torsoTriangle13 -0.00357590 0.03263557 0.03877582 -0.01554672 -0.15195262 0.07580871
torsoTriangle14 0.00440725 -0.01626444 0.02809442 -0.00412056 -0.07753417 -0.08620027
torsoTriangle15 0.00259403 -0.01701728 0.01062000 0.15707161 -0.00321086 -0.15704492
torsoTriangle16 -0.00093833 0.00011707 -0.00100000 0.15707427 0.15707472 -0.15707495
torsoTriangle17 0.00799659 0.01434095 0.01041627 -0.00597478 0.15707963 0.10498169
torsoTriangle18 0.01064503 0.03087159 -0.00034551 0.15607819 0.15704935 0.09528138
torsoTriangle24 0.01237245 0.03170500 0.05704000 0.00641797 0.12333759 0.11838735
torsoTriangle25 0.01136319 0.01609156 0.06673000 0.00078213 -0.00019575 0.00000063
torsoTriangle26 0.00517269 -0.00079399 0.05804000 0.00000000 0.00000000 0.00000000
torsoTriangle27 0.00607085 0.00020601 0.03768000 -0.15707551 0.08549518 0.10897725
torsoTriangle28 0.01064755 0.01458951 0.02932306 -0.04202928 0.10606938 0.07696814
torsoTriangle29 0.01310690 0.03192790 0.03967720 -0.01802827 -0.15706032 0.13895434
torsoTriangle30 -0.00507258 -0.01238408 0.02969670 0.04837143 -0.03181733 0.03455412
torsoTriangle31 -0.01062247 -0.01131309 0.00862000 0.07957114 0.15680945 -0.08099427
torsoTaxel0_0 0.00055280 -0.00321936 -0.00565776 0.00000000 0.00000000 0.00000000
torsoTaxel0_1 0.00165878 -0.00966030 -0.00565710 0.00000000 0.00000000 0.00000000
torsoTaxel0_2 0.00110598 -0.00644094 0.00000066 0.00000000 0.00000000 0.00000000
torsoTaxel0_3 0.00000000 0.00000000 0.00000000 0.00000000 0.00000000 0.00000000
torsoTaxel0_4 0.00055310 -0.00322109 0.00565929 0.00000000 0.00000000 0.00000000
torsoTaxel0_5 0.00000030 -0.00000173 0.01131705 0.00000000 0.00000000 0.00000000
torsoTaxel0_7 -0.00055280 0.00321936 0.00565776 0.00000000 0.00000000 0.00000000
torsoTaxel0_8 -0.00110598 0.00644094 -0.00000066 0.00000000 0.00000000 0.00000000
torsoTaxel0_9 -0.00165864 0.00965947 -0.00565845 0.00000000 0.00000000 0.00000000
torsoTaxel0_11 -0.00055310 0.00322109 -0.00565929 0.00000000 0.00000000 0.00000000
torsoTaxel1_0 -0.00093995 0.00312836 -0.00565774 0.00000000 0.00000000 0.00000000
torsoTaxel1_1 0.00000048 -0.00000161 -0.01131705 0.00000000 0.00000000 0.00000000
torsoTaxel1_2 0.00094043 -0.00312996 -0.00565931 0.00000000 0.00000000 0.00000000
torsoTaxel1_3 0.00000000 0.00000000 0.00000000 0.00000000 0.00000000 0.00000000
torsoTaxel1_4 0.00188052 -0.00625880 -0.00000071 0.00000000 0.00000000 0.00000000
torsoTaxel1_5 0.00282047 -0.00938715 0.00565702 0.00000000 0.00000000 0.00000000
torsoTaxel1_7 0.00093995 -0.00312836 0.00565774 0.00000000 0.00000000 0.00000000
torsoTaxel1_8 -0.00094043 0.00312996 0.00565931 0.00000000 0.00000000 0.00000000
torsoTaxel1_9 -0.00282020 0.00938627 0.00565852 0.00000000 0.00000000 0.00000000
torsoTaxel1_11 -0.00188052 0.00625880 0.00000071 0.00000000 0.00000000 0.00000000
torsoTaxel2_0 0.00185940 -0.00268561 -0.00565776 0.00000000 0.00000000 0.00000000
torsoTaxel2_1 0.00557948 -0.00805867 -0.00565710 0.00000000 0.00000000 0.00000000
torsoTaxel2_2 0.00372009 -0.00537307 0.00000066 0.00000000 0.00000000 0.00000000
torsoTaxel2_3 0.00000000 0.00000000 0.00000000 0.00000000 0.00000000 0.00000000
torsoTaxel2_4 0.00186040 -0.00268705 0.00565929 0.00000000 0.00000000 0.00000000
torsoTaxel2_5 0.00000100 -0.00000145 0.01131705 0.00000000 0.00000000 0.00000000
torsoTaxel2_7 -0.00185940 0.00268561 0.00565776 0.00000000 0.00000000 0.00000000
torsoTaxel2_8 -0.00372009 0.00537307 -0.00000066 0.00000000 0.00000000 0.00000000
torsoTaxel2_9 -0.00557901 0.00805798 -0.00565845 0.00000000 0.00000000 0.00000000
torsoTaxel2_11 -0.00186040 0.00268705 -0.00565929 0.00000000 0.00000000 0.00000000
torsoTaxel3_0 -0.00269574 0.00184475 -0.00565774 0.00000000 0.00000000 0.00000000
torsoTaxel3_1 0.00000138 -0.00000095 -0.01131705 0.00000000 0.00000000 0.00000000
torsoTaxel3_2 0.00269712 -0.00184570 -0.00565931 0.00000000 0.00000000 0.00000000
torsoTaxel3_3 0.00000000 0.00000000 0.00000000 0.00000000 0.00000000 0.00000000
torsoTaxel3_4 0.00539327 -0.00369074 -0.00000071 0.00000000 0.00000000 0.00000000
torsoTaxel3_5 0.00808900 -0.00553549 0.00565702 0.00000000 0.00000000 0.00000000
torsoTaxel3_7 0.00269574 -0.00184475 0.00565774 0.00000000 0.00000000 0.00000000
torsoTaxel3_8 -0.00269712 0.00184570 0.00565931 0.00000000 0.00000000 0.00000000
torsoTaxel3_9 -0.00808824 0.00553497 0.00565852 0.00000000 0.00000000 0.00000000
torsoTaxel3_11 -0.00539327 0.00369074 0.00000071 0.00000000 0.00000000 0.00000000
torsoTaxel4_0 -0.00509006 0.00409529 0.00000000 0.00000000 0.00000000 0.00000000
torsoTaxel4_1 -0.00763548 0.00614325 -0.00566000 0.00000000 0.00000000 0.00000000
torsoTaxel4_2 -0.00254542 0.00204796 -0.00566000 0.00000000 0.00000000 0.00000000
torsoTaxel4_3 0.00000000 0.00000000 0.00000000 0.00000000 0.00000000 0.00000000
torsoTaxel4_4 0.00254542 -0.00204796 -0.00566000 0.00000000 0.00000000 0.00000000
torsoTaxel4_5 0.00763548 -0.00614325 -0.00566000 0.00000000 0.00000000 0.00000000
torsoTaxel4_7 0.00509006 -0.00409529 0.00000000 0.00000000 0.00000000 0.00000000
torsoTaxel4_8 0.00254542 -0.00204796 0.00566000 0.00000000 0.00000000 0.00000000
torsoTaxel4_9 0.00000000 0.00000000 0.01131700 0.00000000 0.00000000 0.00000000
torsoTaxel4_11 -0.00254542 0.00204796 0.00566000 0.00000000 0.00000000 0.00000000
torsoTaxel5_0 0.00000000 0.00326651 0.00565774 0.00000000 0.00000000 0.00000000
torsoTaxel5_1 0.00000000 0.00980172 0.00565702 0.00000000 0.00000000 0.00000000
torsoTaxel5_2 0.00000000 0.00653520 -0.00000071 0.00000000 0.00000000 0.00000000
torsoTaxel5_3 0.00000000 0.00000000 0.00000000 0.00000000 0.00000000 0.00000000
torsoTaxel5_4 0.00000000 0.00326819 -0.00565931 0.00000000 0.00000000 0.00000000
torsoTaxel5_5 0.00000000 0.00000168 -0.01131705 0.00000000 0.00000000 0.00000000
torsoTaxel5_7 0.00000000 -0.00326651 -0.00565774 0.00000000 0.00000000 0.00000000
torsoTaxel5_8 0.00000000 -0.00653520 0.00000071 0.00000000 0.00000000 0.00000000
torsoTaxel5_9 0.00000000 -0.00980080 0.00565852 0.00000000 0.00000000 0.00000000
torsoTaxel5_11 0.00000000 -0.00326819 0.00565931 0.00000000 0.00000000 0.00000000
torsoTaxel8_0 -0.00305186 0.00577635 0.00000000 0.00000000 0.00000000 0.00000000
torsoTaxel8_1 -0.00457802 0.00866497 -0.00566000 0.00000000 0.00000000 0.00000000
torsoTaxel8_2 -0.00152616 0.00288862 -0.00566000 0.00000000 0.00000000 0.00000000
torsoTaxel8_3 0.00000000 0.00000000 0.00000000 0.00000000 0.00000000 0.00000000
torsoTaxel8_4 0.00152616 -0.00288862 -0.00566000 0.00000000 0.00000000 0.00000000
torsoTaxel8_5 0.00457802 -0.00866497 -0.00566000 0.00000000 0.00000000 0.00000000
torsoTaxel8_7 0.00305186 -0.00577635 0.00000000 0.00000000 0.00000000 0.00000000
torsoTaxel8_8 0.00152616 -0.00288862 0.00566000 0.00000000 0.00000000 0.00000000
torsoTaxel8_9 0.00000000 0.00000000 0.01131700 0.00000000 0.00000000 0.00000000
torsoTaxel8_11 -0.00152616 0.00288862 0.00566000 0.00000000 0.00000000 0.00000000
torsoTaxel9_0 -0.00073583 0.00318256 0.00565774 0.00000000 0.00000000 0.00000000
torsoTaxel9_1 -0.00220799 0.00954979 0.00565702 0.00000000 0.00000000 0.00000000
torsoTaxel9_2 -0.00147216 0.00636723 -0.00000071 0.00000000 0.00000000 0.00000000
torsoTaxel9_3 0.00000000 0.00000000 0.00000000 0.00000000 0.00000000 0.00000000
torsoTaxel9_4 -0.00073621 0.00318419 -0.00565931 0.00000000 0.00000000 0.00000000
torsoTaxel9_5 -0.00000038 0.00000163 -0.01131705 0.00000000 0.00000000 0.00000000
torsoTaxel9_7 0.00073583 -0.00318256 -0.00565774 0.00000000 0.00000000 0.00000000
torsoTaxel9_8 0.00147216 -0.00636723 0.00000071 0.00000000 0.00000000 0.00000000
torsoTaxel9_9 0.00220778 -0.00954889 0.00565852 0.00000000 0.00000000 0.00000000
torsoTaxel9_11 0.00073621 -0.00318419 0.00565931 0.00000000 0.00000000 0.00000000
torsoTaxel10_0 0.00027732 -0.00325468 0.00565776 0.00000000 0.00000000 0.00000000
torsoTaxel10_1 -0.00000015 0.00000175 0.01131705 0.00000000 0.00000000 0.00000000
torsoTaxel10_2 -0.00027747 0.00325643 0.00565929 0.00000000 0.00000000 0.00000000
torsoTaxel10_3 0.00000000 0.00000000 0.00000000 0.00000000 0.00000000 0.00000000
torsoTaxel10_4 -0.00055484 0.00651161 0.00000066 0.00000000 0.00000000 0.00000000
torsoTaxel10_5 -0.00083216 0.00976629 -0.00565710 0.00000000 0.00000000 0.00000000
torsoTaxel10_7 -0.00027732 0.00325468 -0.00565776 0.00000000 0.00000000 0.00000000
torsoTaxel10_8 0.00027747 -0.00325643 -0.00565929 0.00000000 0.00000000 0.00000000
torsoTaxel10_9 0.00083209 -0.00976545 -0.00565845 0.00000000 0.00000000 0.00000000
torsoTaxel10_11 0.00055484 -0.00651161 -0.00000066 0.00000000 0.00000000 0.00000000
torsoTaxel11_0 0.00057707 -0.00650746 0.00000005 0.00000000 0.00000000 0.00000000
torsoTaxel11_1 0.00086564 -0.00976165 0.00566007 0.00000000 0.00000000 0.00000000
torsoTaxel11_2 0.00028857 -0.00325419 0.00566002 0.00000000 0.00000000 0.00000000
torsoTaxel11_3 0.00000000 0.00000000 0.00000000 0.00000000 0.00000000 0.00000000
torsoTaxel11_4 -0.00028858 0.00325427 0.00565998 0.00000000 0.00000000 0.00000000
torsoTaxel11_5 -0.00086565 0.00976173 0.00565993 0.00000000 0.00000000 0.00000000
torsoTaxel11_7 -0.00057707 0.00650746 -0.00000005 0.00000000 0.00000000 0.00000000
torsoTaxel11_8 -0.00028857 0.00325419 -0.00566002 0.00000000 0.00000000 0.00000000
torsoTaxel11_9 0.00000001 -0.00000008 -0.01131700 0.00000000 0.00000000 0.00000000
torsoTaxel11_11 0.00028858 -0.00325427 -0.00565998 0.00000000 0.00000000 0.00000000
torsoTaxel12_0 -0.00160779 0.00633207 0.00000000 0.00000000 0.00000000 0.00000000
torsoTaxel12_1 -0.00241180 0.00949859 -0.00566000 0.00000000 0.00000000 0.00000000
torsoTaxel12_2 -0.00080402 0.00316652 -0.00566000 0.00000000 0.00000000 0.00000000
torsoTaxel12_3 0.00000000 0.00000000 0.00000000 0.00000000 0.00000000 0.00000000
torsoTaxel12_4 0.00080402 -0.00316652 -0.00566000 0.00000000 0.00000000 0.00000000
torsoTaxel12_5 0.00241180 -0.00949859 -0.00566000 0.00000000 0.00000000 0.00000000
torsoTaxel12_7 0.00160779 -0.00633207 0.00000000 0.00000000 0.00000000 0.00000000
torsoTaxel12_8 0.00080402 -0.00316652 0.00566000 0.00000000 0.00000000 0.00000000
torsoTaxel12_9 0.00000000 0.00000000 0.01131700 0.00000000 0.00000000 0.00000000
torsoTaxel12_11 -0.00080402 0.00316652 0.00566000 0.00000000 0.00000000 0.00000000
torsoTaxel13_0 -0.00153816 0.00288170 -0.00565774 0.00000000 0.00000000 0.00000000
torsoTaxel13_1 0.00000079 -0.00000148 -0.01131705 0.00000000 0.00000000 0.00000000
torsoTaxel13_2 0.00153895 -0.00288318 -0.00565931 0.00000000 0.00000000 0.00000000
torsoTaxel13_3 0.00000000 0.00000000 0.00000000 0.00000000 0.00000000 0.00000000
torsoTaxel13_4 0.00307734 -0.00576532 -0.00000071 0.00000000 0.00000000 0.00000000
torsoTaxel13_5 0.00461550 -0.00864701 0.00565702 0.00000000 0.00000000 0.00000000
torsoTaxel13_7 0.00153816 -0.00288170 0.00565774 0.00000000 0.00000000 0.00000000
torsoTaxel13_8 -0.00153895 0.00288318 0.00565931 0.00000000 0.00000000 0.00000000
torsoTaxel13_9 -0.00461506 0.00864620 0.00565852 0.00000000 0.00000000 0.00000000
torsoTaxel13_11 -0.00307734 0.00576532 0.00000071 0.00000000 0.00000000 0.00000000
torsoTaxel14_0 0.00021792 -0.00325919 0.00565776 0.00000000 0.00000000 0.00000000
torsoTaxel14_1 -0.00000012 0.00000176 0.01131705 0.00000000 0.00000000 0.00000000
torsoTaxel14_2 -0.00021804 0.00326095 0.00565929 0.00000000 0.00000000 0.00000000
torsoTaxel14_3 0.00000000 0.00000000 0.00000000 0.00000000 0.00000000 0.00000000
torsoTaxel14_4 -0.00043600 0.00652064 0.00000066 0.00000000 0.00000000 0.00000000
torsoTaxel14_5 -0.00065392 0.00977984 -0.00565710 0.00000000 0.00000000 0.00000000
torsoTaxel14_7 -0.00021792 0.00325919 -0.00565776 0.00000000 0.00000000 0.00000000
torsoTaxel14_8 0.00021804 -0.00326095 -0.00565929 0.00000000 0.00000000 0.00000000
torsoTaxel14_9 0.00065387 -0.00977900 -0.00565845 0.00000000 0.00000000 0.00000000
torsoTaxel14_11 0.00043600 -0.00652064 -0.00000066 0.00000000 0.00000000 0.00000000
torsoTaxel15_0 0.00078193 -0.00648604 0.00000005 0.00000000 0.00000000 0.00000000
torsoTaxel15_1 0.00117295 -0.00972951 0.00566007 0.00000000 0.00000000 0.00000000
torsoTaxel15_2 0.00039102 -0.00324347 0.00566002 0.00000000 0.00000000 0.00000000
torsoTaxel15_3 0.00000000 0.00000000 0.00000000 0.00000000 0.00000000 0.00000000
torsoTaxel15_4 -0.00039103 0.00324356 0.00565998 0.00000000 0.00000000 0.00000000
torsoTaxel15_5 -0.00117296 0.00972959 0.00565993 0.00000000 0.00000000 0.00000000
torsoTaxel15_7 -0.00078193 0.00648604 -0.00000005 0.00000000 0.00000000 0.00000000
torsoTaxel15_8 -0.00039102 0.00324347 -0.00566002 0.00000000 0.00000000 0.00000000
torsoTaxel15_9 0.00000001 -0.00000008 -0.01131700 0.00000000 0.00000000 0.00000000
torsoTaxel15_11 0.00039103 -0.00324356 -0.00565998 0.00000000 0.00000000 0.00000000
torsoTaxel16_0 -0.00185911 -0.00268581 -0.00565776 0.00000000 0.00000000 0.00000000
torsoTaxel16_1 -0.00557862 -0.00805927 -0.00565710 0.00000000 0.00000000 0.00000000
torsoTaxel16_2 -0.00371951 -0.00537347 0.00000066 0.00000000 0.00000000 0.00000000
torsoTaxel16_3 0.00000000 0.00000000 0.00000000 0.00000000 0.00000000 0.00000000
torsoTaxel16_4 -0.00186011 -0.00268725 0.00565929 0.00000000 0.00000000 0.00000000
torsoTaxel16_5 -0.00000100 -0.00000145 0.01131705 0.00000000 0.00000000 0.00000000
torsoTaxel16_7 0.00185911 0.00268581 0.00565776 0.00000000 0.00000000 0.00000000
torsoTaxel16_8 0.00371951 0.00537347 -0.00000066 0.00000000 0.00000000 0.00000000
torsoTaxel16_9 0.00557814 0.00805858 -0.00565845 0.00000000 0.00000000 0.00000000
torsoTaxel16_11 0.00186011 0.00268725 -0.00565929 0.00000000 0.00000000 0.00000000
torsoTaxel17_0 0.00093979 0.00312840 -0.00565774 0.00000000 0.00000000 0.00000000
torsoTaxel17_1 -0.00000048 -0.00000161 -0.01131705 0.00000000 0.00000000 0.00000000
torsoTaxel17_2 -0.00094027 -0.00313001 -0.00565931 0.00000000 0.00000000 0.00000000
torsoTaxel17_3 0.00000000 0.00000000 0.00000000 0.00000000 0.00000000 0.00000000
torsoTaxel17_4 -0.00188021 -0.00625889 -0.00000071 0.00000000 0.00000000 0.00000000
torsoTaxel17_5 -0.00282000 -0.00938729 0.00565702 0.00000000 0.00000000 0.00000000
torsoTaxel17_7 -0.00093979 -0.00312840 0.00565774 0.00000000 0.00000000 0.00000000
torsoTaxel17_8 0.00094027 0.00313001 0.00565931 0.00000000 0.00000000 0.00000000
torsoTaxel17_9 0.00281973 0.00938641 0.00565852 0.00000000 0.00000000 0.00000000
torsoTaxel17_11 0.00188021 0.00625889 0.00000071 0.00000000 0.00000000 0.00000000
torsoTaxel18_0 -0.00055274 -0.00321937 -0.00565776 0.00000000 0.00000000 0.00000000
torsoTaxel18_1 -0.00165860 -0.00966033 -0.00565710 0.00000000 0.00000000 0.00000000
torsoTaxel18_2 -0.00110586 -0.00644096 0.00000066 0.00000000 0.00000000 0.00000000
torsoTaxel18_3 0.00000000 0.00000000 0.00000000 0.00000000 0.00000000 0.00000000
torsoTaxel18_4 -0.00055304 -0.00322110 0.00565929 0.00000000 0.00000000 0.00000000
torsoTaxel18_5 -0.00000030 -0.00000173 0.01131705 0.00000000 0.00000000 0.00000000
torsoTaxel18_7 0.00055274 0.00321937 0.00565776 0.00000000 0.00000000 0.00000000
torsoTaxel18_8 0.00110586 0.00644096 -0.00000066 0.00000000 0.00000000 0.00000000
torsoTaxel18_9 0.00165846 0.00965950 -0.00565845 0.00000000 0.00000000 0.00000000
torsoTaxel18_11 0.00055304 0.00322110 -0.00565929 0.00000000 0.00000000 0.00000000
torsoTaxel24_0 0.00055448 0.00650943 0.00000000 0.00000000 0.00000000 0.00000000
torsoTaxel24_1 0.00083176 0.00976464 -0.00566000 0.00000000 0.00000000 0.00000000
torsoTaxel24_2 0.00027728 0.00325521 -0.00566000 0.00000000 0.00000000 0.00000000
torsoTaxel24_3 0.00000000 0.00000000 0.00000000 0.00000000 0.00000000 0.00000000
torsoTaxel24_4 -0.00027728 -0.00325521 -0.00566000 0.00000000 0.00000000 0.00000000
torsoTaxel24_5 -0.00083176 -0.00976464 -0.00566000 0.00000000 0.00000000 0.00000000
torsoTaxel24_7 -0.00055448 -0.00650943 0.00000000 0.00000000 0.00000000 0.00000000
torsoTaxel24_8 -0.00027728 -0.00325521 0.00566000 0.00000000 0.00000000 0.00000000
torsoTaxel24_9 0.00000000 0.00000000 0.01131700 0.00000000 0.00000000 0.00000000
torsoTaxel24_11 0.00027728 0.00325521 0.00566000 0.00000000 0.00000000 0.00000000
torsoTaxel25_0 0.00073569 0.00318259 0.00565774 0.00000000 0.00000000 0.00000000
torsoTaxel25_1 0.00220755 0.00954989 0.00565702 0.00000000 0.00000000 0.00000000
torsoTaxel25_2 0.00147186 0.00636730 -0.00000071 0.00000000 0.00000000 0.00000000
torsoTaxel25_3 0.00000000 0.00000000 0.00000000 0.00000000 0.00000000 0.00000000
torsoTaxel25_4 0.00073606 0.00318422 -0.00565931 0.00000000 0.00000000 0.00000000
torsoTaxel25_5 0.00000038 0.00000163 -0.01131705 0.00000000 0.00000000 0.00000000
torsoTaxel25_7 -0.00073569 -0.00318259 -0.00565774 0.00000000 0.00000000 0.00000000
torsoTaxel25_8 -0.00147186 -0.00636730 0.00000071 0.00000000 0.00000000 0.00000000
torsoTaxel25_9 -0.00220734 -0.00954899 0.00565852 0.00000000 0.00000000 0.00000000
torsoTaxel25_11 -0.00073606 -0.00318422 0.00565931 0.00000000 0.00000000 0.00000000
torsoTaxel26_0 -0.00152566 -0.00288829 0.00565776 0.00000000 0.00000000 0.00000000
torsoTaxel26_1 0.00000082 0.00000156 0.01131705 0.00000000 0.00000000 0.00000000
torsoTaxel26_2 0.00152648 0.00288984 0.00565929 0.00000000 0.00000000 0.00000000
torsoTaxel26_3 0.00000000 0.00000000 0.00000000 0.00000000 0.00000000 0.00000000
torsoTaxel26_4 0.00305238 0.00577857 0.00000066 0.00000000 0.00000000 0.00000000
torsoTaxel26_5 0.00457804 0.00866685 -0.00565710 0.00000000 0.00000000 0.00000000
torsoTaxel26_7 0.00152566 0.00288829 -0.00565776 0.00000000 0.00000000 0.00000000
torsoTaxel26_8 -0.00152648 -0.00288984 -0.00565929 0.00000000 0.00000000 0.00000000
torsoTaxel26_9 -0.00457765 -0.00866611 -0.00565845 0.00000000 0.00000000 0.00000000
torsoTaxel26_11 -0.00305238 -0.00577857 -0.00000066 0.00000000 0.00000000 0.00000000
torsoTaxel27_0 -0.00307579 -0.00576365 0.00000005 0.00000000 0.00000000 0.00000000
torsoTaxel27_1 -0.00461390 -0.00864587 0.00566007 0.00000000 0.00000000 0.00000000
torsoTaxel27_2 -0.00153811 -0.00288223 0.00566002 0.00000000 0.00000000 0.00000000
torsoTaxel27_3 0.00000000 0.00000000 0.00000000 0.00000000 0.00000000 0.00000000
torsoTaxel27_4 0.00153815 0.00288230 0.00565998 0.00000000 0.00000000 0.00000000
torsoTaxel27_5 0.00461394 0.00864595 0.00565993 0.00000000 0.00000000 0.00000000
torsoTaxel27_7 0.00307579 0.00576365 -0.00000005 0.00000000 0.00000000 0.00000000
torsoTaxel27_8 0.00153811 0.00288223 -0.00566002 0.00000000 0.00000000 0.00000000
torsoTaxel27_9 -0.00000004 -0.00000007 -0.01131700 0.00000000 0.00000000 0.00000000
torsoTaxel27_11 -0.00153815 -0.00288230 -0.00565998 0.00000000 0.00000000 0.00000000
torsoTaxel28_0 0.00160749 0.00633215 0.00000000 0.00000000 0.00000000 0.00000000
torsoTaxel28_1 0.00241136 0.00949870 -0.00566000 0.00000000 0.00000000 0.00000000
torsoTaxel28_2 0.00080387 0.00316656 -0.00566000 0.00000000 0.00000000 0.00000000
torsoTaxel28_3 0.00000000 0.00000000 0.00000000 0.00000000 0.00000000 0.00000000
torsoTaxel28_4 -0.00080387 -0.00316656 -0.00566000 0.00000000 0.00000000 0.00000000
torsoTaxel28_5 -0.00241136 -0.00949870 -0.00566000 0.00000000 0.00000000 0.00000000
torsoTaxel28_7 -0.00160749 -0.00633215 0.00000000 0.00000000 0.00000000 0.00000000
torsoTaxel28_8 -0.00080387 -0.00316656 0.00566000 0.00000000 0.00000000 0.00000000
torsoTaxel28_9 0.00000000 0.00000000 0.01131700 0.00000000 0.00000000 0.00000000
torsoTaxel28_11 0.00080387 0.00316656 0.00566000 0.00000000 0.00000000 0.00000000
torsoTaxel29_0 0.00028845 0.00325375 -0.00565774 0.00000000 0.00000000 0.00000000
torsoTaxel29_1 -0.00000015 -0.00000167 -0.01131705 0.00000000 0.00000000 0.00000000
torsoTaxel29_2 -0.00028860 -0.00325542 -0.00565931 0.00000000 0.00000000 0.00000000
torsoTaxel29_3 0.00000000 0.00000000 0.00000000 0.00000000 0.00000000 0.00000000
torsoTaxel29_4 -0.00057710 -0.00650967 -0.00000071 0.00000000 0.00000000 0.00000000
torsoTaxel29_5 -0.00086555 -0.00976343 0.00565702 0.00000000 0.00000000 0.00000000
torsoTaxel29_7 -0.00028845 -0.00325375 0.00565774 0.00000000 0.00000000 0.00000000
torsoTaxel29_8 0.00028860 0.00325542 0.00565931 0.00000000 0.00000000 0.00000000
torsoTaxel29_9 0.00086547 0.00976251 0.00565852 0.00000000 0.00000000 0.00000000
torsoTaxel29_11 0.00057710 0.00650967 0.00000071 0.00000000 0.00000000 0.00000000
torsoTaxel30_0 -0.00254470 -0.00204801 0.00565776 0.00000000 0.00000000 0.00000000
torsoTaxel30_1 0.00000137 0.00000110 0.01131705 0.00000000 0.00000000 0.00000000
torsoTaxel30_2 0.00254607 0.00204911 0.00565929 0.00000000 0.00000000 0.00000000
torsoTaxel30_3 0.00000000 0.00000000 0.00000000 0.00000000 0.00000000 0.00000000
torsoTaxel30_4 0.00509116 0.00409744 0.00000066 0.00000000 0.00000000 0.00000000
torsoTaxel30_5 0.00763585 0.00614545 -0.00565710 0.00000000 0.00000000 0.00000000
torsoTaxel30_7 0.00254470 0.00204801 -0.00565776 0.00000000 0.00000000 0.00000000
torsoTaxel30_8 -0.00254607 -0.00204911 -0.00565929 0.00000000 0.00000000 0.00000000
torsoTaxel30_9 -0.00763520 -0.00614493 -0.00565845 0.00000000 0.00000000 0.00000000
torsoTaxel30_11 -0.00509116 -0.00409744 -0.00000066 0.00000000 0.00000000 0.00000000
torsoTaxel31_0 -0.00539084 -0.00369038 0.00000005 0.00000000 0.00000000 0.00000000
torsoTaxel31_1 -0.00808664 -0.00553583 0.00566007 0.00000000 0.00000000 0.00000000
torsoTaxel31_2 -0.00269580 -0.00184545 0.00566002 0.00000000 0.00000000 0.00000000
torsoTaxel31_3 0.00000000 0.00000000 0.00000000 0.00000000 0.00000000 0.00000000
torsoTaxel31_4 0.00269587 0.00184550 0.00565998 0.00000000 0.00000000 0.00000000
torsoTaxel31_5 0.00808671 0.00553588 0.00565993 0.00000000 0.00000000 0.00000000
torsoTaxel31_7 0.00539084 0.00369038 -0.00000005 0.00000000 0.00000000 0.00000000
torsoTaxel31_8 0.00269580 0.00184545 -0.00566002 0.00000000 0.00000000 0.00000000
torsoTaxel31_9 -0.00000007 -0.00000005 -0.01131700 0.00000000 0.00000000 0.00000000
torsoTaxel31_11 -0.00269587 -0.00184550 -0.00565998 0.00000000 0.00000000 0.00000000

headSkin	 x(a) 	 y(d) 	 z(alfa) 	 alfa(offset) 	 beta(-) 	 gama(-)
headPlastic -0.00821701 0.00223456 1.50747300 0.38874326 NaN   NaN  
headLeftPatch 0.05258557 0.00891630 0.01905832 -0.01447512 -0.00664002 -0.16639830
headRightPatch 0.02195868 -0.01483252 0.10096074 0.00665605 -0.13450319 0.06089149
headTriangle0 0.00099998 -0.00100000 0.00017450 0.04238858 0.04907028 0.15707963
headTriangle1 0.00139105 0.00931689 0.01488469 0.15707963 -0.15707963 0.11625304
headTriangle2 -0.00698167 0.02552495 0.01348019 0.00000000 0.00000000 0.00000000
headTriangle3 -0.00812484 0.03365117 0.02828277 -0.15707963 -0.15707832 0.15707963
headTriangle4 -0.00602854 0.02540250 0.04660298 0.08090217 -0.15496344 0.15689227
headTriangle5 -0.02038921 0.03359822 0.05975665 -0.15707963 0.00828542 -0.04586973
headTriangle6 -0.02566249 0.02643631 0.07141467 -0.15707962 0.03860538 -0.08731923
headTriangle7 -0.01666248 0.00820170 0.07574837 -0.15707366 -0.04715999 0.13790687
headTriangle8 -0.00181881 0.00070169 0.06590956 -0.15707963 0.09878767 0.10903210
headTriangle12 0.00687999 0.00087451 0.03084844 -0.15707963 0.01254785 -0.15707963
headTriangle13 0.00412311 0.00826121 0.04726783 0.15707963 0.15707956 -0.15707963
headTriangle15 -0.02635816 -0.00013162 0.08653326 0.00000000 0.00000000 0.00000000
headTriangle16 0.00000000 0.00000000 0.00000000 0.00000000 0.00000000 0.00000000
headTriangle17 0.01172342 -0.00839661 -0.01246989 -0.10418553 0.08013188 -0.00996866
headTriangle18 0.00317161 -0.02528148 -0.01401649 -0.09826400 -0.07766816 0.11183145
headTriangle19 0.00960542 -0.03363922 -0.02788972 0.03971542 0.11496321 0.00588235
headTriangle20 0.02177067 -0.02739507 -0.03986693 -0.06914875 0.15707963 0.15163605
headTriangle21 0.01784695 -0.03358340 -0.05859114 -0.12377461 0.01197555 0.15644958
headTriangle22 0.01909487 -0.02440986 -0.07427896 -0.15707963 -0.05667956 0.15707963
headTriangle23 0.02772255 -0.00989531 -0.07082068 0.11336530 -0.04459966 -0.04556929
headTriangle24 0.03323902 -0.00102147 -0.05332637 0.15707962 0.15707963 -0.13131848
headTriangle28 0.02509364 -0.00015775 -0.02049930 0.14116750 -0.15707963 -0.13541215
headTriangle29 0.02679870 -0.01026404 -0.03665829 0.15707945 0.14602833 0.12131598
headTriangle31 0.02909360 0.00115568 -0.08808408 -0.15707963 0.15707963 -0.15707963
headTaxel0_0 -0.00333331 0.00000947 -0.00561863 0.00000000 0.00000000 0.00000000
headTaxel0_1 -0.00381440 -0.00547410 -0.00914113 0.00000000 0.00000000 0.00000000
headTaxel0_2 -0.00048109 -0.00548356 -0.00352249 0.00000000 0.00000000 0.00000000
headTaxel0_3 0.00000000 0.00000000 0.00000000 0.00000000 0.00000000 0.00000000
headTaxel0_4 0.00285273 -0.00549303 0.00209700 0.00000000 0.00000000 0.00000000
headTaxel0_5 0.00618604 -0.00550250 0.00771563 0.00000000 0.00000000 0.00000000
headTaxel0_7 0.00333331 -0.00000947 0.00561863 0.00000000 0.00000000 0.00000000
headTaxel0_8 0.00048109 0.00548356 0.00352249 0.00000000 0.00000000 0.00000000
headTaxel0_9 -0.00237101 0.01097369 0.00142512 0.00000000 0.00000000 0.00000000
headTaxel0_11 -0.00285273 0.00549303 -0.00209700 0.00000000 0.00000000 0.00000000
headTaxel1_0 -0.00364506 0.00510520 -0.00182498 0.00000000 0.00000000 0.00000000
headTaxel1_1 -0.00655973 0.00511390 -0.00767421 0.00000000 0.00000000 0.00000000
headTaxel1_2 -0.00291467 0.00000870 -0.00584923 0.00000000 0.00000000 0.00000000
headTaxel1_3 0.00000000 0.00000000 0.00000000 0.00000000 0.00000000 0.00000000
headTaxel1_4 0.00073094 -0.00509728 -0.00402397 0.00000000 0.00000000 0.00000000
headTaxel1_5 0.00437600 -0.01020248 -0.00219898 0.00000000 0.00000000 0.00000000
headTaxel1_7 0.00364506 -0.00510520 0.00182498 0.00000000 0.00000000 0.00000000
headTaxel1_8 0.00291467 -0.00000870 0.00584923 0.00000000 0.00000000 0.00000000
headTaxel1_9 0.00218315 0.00508724 0.00987058 0.00000000 0.00000000 0.00000000
headTaxel1_11 -0.00073094 0.00509728 0.00402397 0.00000000 0.00000000 0.00000000
headTaxel2_0 -0.00360889 0.00000913 -0.00544572 0.00000000 0.00000000 0.00000000
headTaxel2_1 -0.00297184 -0.00482660 -0.00979529 0.00000000 0.00000000 0.00000000
headTaxel2_2 0.00063705 -0.00483574 -0.00434956 0.00000000 0.00000000 0.00000000
headTaxel2_3 0.00000000 0.00000000 0.00000000 0.00000000 0.00000000 0.00000000
headTaxel2_4 0.00424650 -0.00484487 0.00109699 0.00000000 0.00000000 0.00000000
headTaxel2_5 0.00785539 -0.00485400 0.00654271 0.00000000 0.00000000 0.00000000
headTaxel2_7 0.00360889 -0.00000913 0.00544572 0.00000000 0.00000000 0.00000000
headTaxel2_8 -0.00063705 0.00483574 0.00434956 0.00000000 0.00000000 0.00000000
headTaxel2_9 -0.00488225 0.00967804 0.00325171 0.00000000 0.00000000 0.00000000
headTaxel2_11 -0.00424650 0.00484487 -0.00109699 0.00000000 0.00000000 0.00000000
headTaxel3_0 -0.00452130 0.00454014 -0.00127480 0.00000000 0.00000000 0.00000000
headTaxel3_1 -0.00760923 0.00454882 -0.00703445 0.00000000 0.00000000 0.00000000
headTaxel3_2 -0.00308793 0.00000868 -0.00575964 0.00000000 0.00000000 0.00000000
headTaxel3_3 0.00000000 0.00000000 0.00000000 0.00000000 0.00000000 0.00000000
headTaxel3_4 0.00143406 -0.00453215 -0.00448464 0.00000000 0.00000000 0.00000000
headTaxel3_5 0.00595535 -0.00907228 -0.00320984 0.00000000 0.00000000 0.00000000
headTaxel3_7 0.00452130 -0.00454014 0.00127480 0.00000000 0.00000000 0.00000000
headTaxel3_8 0.00308793 -0.00000868 0.00575964 0.00000000 0.00000000 0.00000000
headTaxel3_9 0.00165344 0.00452226 0.01024157 0.00000000 0.00000000 0.00000000
headTaxel3_11 -0.00143406 0.00453215 0.00448464 0.00000000 0.00000000 0.00000000
headTaxel4_0 -0.00425423 0.00481982 0.00116231 0.00000000 0.00000000 0.00000000
headTaxel4_1 -0.00498449 0.00965027 -0.00317847 0.00000000 0.00000000 0.00000000
headTaxel4_2 -0.00073026 0.00483045 -0.00434078 0.00000000 0.00000000 0.00000000
headTaxel4_3 0.00000000 0.00000000 0.00000000 0.00000000 0.00000000 0.00000000
headTaxel4_4 0.00352461 0.00000989 -0.00550326 0.00000000 0.00000000 0.00000000
headTaxel4_5 0.00777884 -0.00480994 -0.00666557 0.00000000 0.00000000 0.00000000
headTaxel4_7 0.00425423 -0.00481982 -0.00116231 0.00000000 0.00000000 0.00000000
headTaxel4_8 0.00073026 -0.00483045 0.00434078 0.00000000 0.00000000 0.00000000
headTaxel4_9 -0.00279361 -0.00483906 0.00984143 0.00000000 0.00000000 0.00000000
headTaxel4_11 -0.00352461 -0.00000989 0.00550326 0.00000000 0.00000000 0.00000000
headTaxel5_0 0.00046736 0.00495634 -0.00423040 0.00000000 0.00000000 0.00000000
headTaxel5_1 0.00519220 0.00496342 -0.00874535 0.00000000 0.00000000 0.00000000
headTaxel5_2 0.00472484 0.00000707 -0.00451495 0.00000000 0.00000000 0.00000000
headTaxel5_3 0.00000000 0.00000000 0.00000000 0.00000000 0.00000000 0.00000000
headTaxel5_4 0.00425740 -0.00495003 -0.00028390 0.00000000 0.00000000 0.00000000
headTaxel5_5 0.00379004 -0.00990638 0.00394650 0.00000000 0.00000000 0.00000000
headTaxel5_7 -0.00046736 -0.00495634 0.00423040 0.00000000 0.00000000 0.00000000
headTaxel5_8 -0.00472484 -0.00000707 0.00451495 0.00000000 0.00000000 0.00000000
headTaxel5_9 -0.00897986 0.00494165 0.00479758 0.00000000 0.00000000 0.00000000
headTaxel5_11 -0.00425740 0.00495003 0.00028390 0.00000000 0.00000000 0.00000000
headTaxel6_0 -0.00418484 0.00497949 -0.00060987 0.00000000 0.00000000 0.00000000
headTaxel6_1 -0.00277155 0.00996592 -0.00459070 0.00000000 0.00000000 0.00000000
headTaxel6_2 0.00141328 0.00498643 -0.00398083 0.00000000 0.00000000 0.00000000
headTaxel6_3 0.00000000 0.00000000 0.00000000 0.00000000 0.00000000 0.00000000
headTaxel6_4 0.00559876 0.00000618 -0.00337086 0.00000000 0.00000000 0.00000000
headTaxel6_5 0.00978360 -0.00497330 -0.00276099 0.00000000 0.00000000 0.00000000
headTaxel6_7 0.00418484 -0.00497949 0.00060987 0.00000000 0.00000000 0.00000000
headTaxel6_8 -0.00141328 -0.00498643 0.00398083 0.00000000 0.00000000 0.00000000
headTaxel6_9 -0.00701019 -0.00499129 0.00734975 0.00000000 0.00000000 0.00000000
headTaxel6_11 -0.00559876 -0.00000618 0.00337086 0.00000000 0.00000000 0.00000000
headTaxel7_0 -0.00520980 -0.00000638 0.00394183 0.00000000 0.00000000 0.00000000
headTaxel7_1 -0.00914401 0.00520717 0.00416511 0.00000000 0.00000000 0.00000000
headTaxel7_2 -0.00393420 0.00521355 0.00022328 0.00000000 0.00000000 0.00000000
headTaxel7_3 0.00000000 0.00000000 0.00000000 0.00000000 0.00000000 0.00000000
headTaxel7_4 0.00127639 0.00521993 -0.00371915 0.00000000 0.00000000 0.00000000
headTaxel7_5 0.00648619 0.00522631 -0.00766098 0.00000000 0.00000000 0.00000000
headTaxel7_7 0.00520980 0.00000638 -0.00394183 0.00000000 0.00000000 0.00000000
headTaxel7_8 0.00393420 -0.00521355 -0.00022328 0.00000000 0.00000000 0.00000000
headTaxel7_9 0.00265711 -0.01043071 0.00349494 0.00000000 0.00000000 0.00000000
headTaxel7_11 -0.00127639 -0.00521993 0.00371915 0.00000000 0.00000000 0.00000000
headTaxel8_0 -0.00300691 0.00548336 0.00188980 0.00000000 0.00000000 0.00000000
headTaxel8_1 -0.00226074 0.01097726 -0.00156985 0.00000000 0.00000000 0.00000000
headTaxel8_2 0.00074617 0.00549390 -0.00345965 0.00000000 0.00000000 0.00000000
headTaxel8_3 0.00000000 0.00000000 0.00000000 0.00000000 0.00000000 0.00000000
headTaxel8_4 0.00375354 0.00000970 -0.00534974 0.00000000 0.00000000 0.00000000
headTaxel8_5 0.00676046 -0.00547365 -0.00723954 0.00000000 0.00000000 0.00000000
headTaxel8_7 0.00300691 -0.00548336 -0.00188980 0.00000000 0.00000000 0.00000000
headTaxel8_8 -0.00074617 -0.00549390 0.00345965 0.00000000 0.00000000 0.00000000
headTaxel8_9 -0.00449852 -0.00550215 0.00880705 0.00000000 0.00000000 0.00000000
headTaxel8_11 -0.00375354 -0.00000970 0.00534974 0.00000000 0.00000000 0.00000000
headTaxel12_0 -0.00249598 0.00537530 0.00274888 0.00000000 0.00000000 0.00000000
headTaxel12_1 -0.00339905 0.01076182 -0.00083981 0.00000000 0.00000000 0.00000000
headTaxel12_2 -0.00090308 0.00538652 -0.00358870 0.00000000 0.00000000 0.00000000
headTaxel12_3 0.00000000 0.00000000 0.00000000 0.00000000 0.00000000 0.00000000
headTaxel12_4 0.00159329 0.00001040 -0.00633800 0.00000000 0.00000000 0.00000000
headTaxel12_5 0.00408926 -0.00536490 -0.00908688 0.00000000 0.00000000 0.00000000
headTaxel12_7 0.00249598 -0.00537530 -0.00274888 0.00000000 0.00000000 0.00000000
headTaxel12_8 0.00090308 -0.00538652 0.00358870 0.00000000 0.00000000 0.00000000
headTaxel12_9 -0.00069003 -0.00539549 0.00992406 0.00000000 0.00000000 0.00000000
headTaxel12_11 -0.00159329 -0.00001040 0.00633800 0.00000000 0.00000000 0.00000000
headTaxel13_0 -0.00055899 0.00512649 -0.00401083 0.00000000 0.00000000 0.00000000
headTaxel13_1 0.00255570 0.00513455 -0.00975605 0.00000000 0.00000000 0.00000000
headTaxel13_2 0.00311469 0.00000806 -0.00574522 0.00000000 0.00000000 0.00000000
headTaxel13_3 0.00000000 0.00000000 0.00000000 0.00000000 0.00000000 0.00000000
headTaxel13_4 0.00367376 -0.00511922 -0.00173378 0.00000000 0.00000000 0.00000000
headTaxel13_5 0.00423275 -0.01024571 0.00227704 0.00000000 0.00000000 0.00000000
headTaxel13_7 0.00055899 -0.00512649 0.00401083 0.00000000 0.00000000 0.00000000
headTaxel13_8 -0.00311469 -0.00000806 0.00574522 0.00000000 0.00000000 0.00000000
headTaxel13_9 -0.00678664 0.00510981 0.00747702 0.00000000 0.00000000 0.00000000
headTaxel13_11 -0.00367376 0.00511922 0.00173378 0.00000000 0.00000000 0.00000000
headTaxel15_0 -0.00352658 0.00549347 0.00025525 0.00000000 0.00000000 0.00000000
headTaxel15_1 -0.00120330 0.01099359 -0.00240179 0.00000000 0.00000000 0.00000000
headTaxel15_2 0.00232328 0.00550013 -0.00265704 0.00000000 0.00000000 0.00000000
headTaxel15_3 0.00000000 0.00000000 0.00000000 0.00000000 0.00000000 0.00000000
headTaxel15_4 0.00585040 0.00000582 -0.00291233 0.00000000 0.00000000 0.00000000
headTaxel15_5 0.00937698 -0.00548765 -0.00316759 0.00000000 0.00000000 0.00000000
headTaxel15_7 0.00352658 -0.00549347 -0.00025525 0.00000000 0.00000000 0.00000000
headTaxel15_8 -0.00232328 -0.00550013 0.00265704 0.00000000 0.00000000 0.00000000
headTaxel15_9 -0.00817151 -0.00550449 0.00556790 0.00000000 0.00000000 0.00000000
headTaxel15_11 -0.00585040 -0.00000582 0.00291233 0.00000000 0.00000000 0.00000000
headTaxel16_0 -0.00584850 -0.00000690 0.00291119 0.00000000 0.00000000 0.00000000
headTaxel16_1 -0.00817310 0.00548423 0.00558563 0.00000000 0.00000000 0.00000000
headTaxel16_2 -0.00232460 0.00549113 0.00267443 0.00000000 0.00000000 0.00000000
headTaxel16_3 0.00000000 0.00000000 0.00000000 0.00000000 0.00000000 0.00000000
headTaxel16_4 0.00352480 0.00549804 -0.00023721 0.00000000 0.00000000 0.00000000
headTaxel16_5 0.00937330 0.00550494 -0.00314840 0.00000000 0.00000000 0.00000000
headTaxel16_7 0.00584850 0.00000690 -0.00291119 0.00000000 0.00000000 0.00000000
headTaxel16_8 0.00232460 -0.00549113 -0.00267443 0.00000000 0.00000000 0.00000000
headTaxel16_9 -0.00119989 -0.01098626 -0.00243658 0.00000000 0.00000000 0.00000000
headTaxel16_11 -0.00352480 -0.00549804 0.00023721 0.00000000 0.00000000 0.00000000
headTaxel17_0 -0.00393066 -0.00521413 0.00020711 0.00000000 0.00000000 0.00000000
headTaxel17_1 -0.00914205 -0.00522226 0.00415048 0.00000000 0.00000000 0.00000000
headTaxel17_2 -0.00521139 -0.00000813 0.00394337 0.00000000 0.00000000 0.00000000
headTaxel17_3 0.00000000 0.00000000 0.00000000 0.00000000 0.00000000 0.00000000
headTaxel17_4 -0.00128013 0.00520679 0.00373624 0.00000000 0.00000000 0.00000000
headTaxel17_5 0.00265053 0.01042092 0.00352913 0.00000000 0.00000000 0.00000000
headTaxel17_7 0.00393066 0.00521413 -0.00020711 0.00000000 0.00000000 0.00000000
headTaxel17_8 0.00521139 0.00000813 -0.00394337 0.00000000 0.00000000 0.00000000
headTaxel17_9 0.00648981 -0.00519728 -0.00767757 0.00000000 0.00000000 0.00000000
headTaxel17_11 0.00128013 -0.00520679 -0.00373624 0.00000000 0.00000000 0.00000000
headTaxel18_0 -0.00559705 -0.00000813 0.00336943 0.00000000 0.00000000 0.00000000
headTaxel18_1 -0.00701176 0.00496544 0.00736581 0.00000000 0.00000000 0.00000000
headTaxel18_2 -0.00141471 0.00497357 0.00399638 0.00000000 0.00000000 0.00000000
headTaxel18_3 0.00000000 0.00000000 0.00000000 0.00000000 0.00000000 0.00000000
headTaxel18_4 0.00418319 0.00498170 0.00062644 0.00000000 0.00000000 0.00000000
headTaxel18_5 0.00978024 0.00498983 -0.00274299 0.00000000 0.00000000 0.00000000
headTaxel18_7 0.00559705 0.00000813 -0.00336943 0.00000000 0.00000000 0.00000000
headTaxel18_8 0.00141471 -0.00497357 -0.00399638 0.00000000 0.00000000 0.00000000
headTaxel18_9 -0.00276775 -0.00995263 -0.00462160 0.00000000 0.00000000 0.00000000
headTaxel18_11 -0.00418319 -0.00498170 -0.00062644 0.00000000 0.00000000 0.00000000
headTaxel19_0 -0.00425331 -0.00495157 0.00026707 0.00000000 0.00000000 0.00000000
headTaxel19_1 -0.00897769 -0.00496028 0.00478249 0.00000000 0.00000000 0.00000000
headTaxel19_2 -0.00472438 -0.00000870 0.00451542 0.00000000 0.00000000 0.00000000
headTaxel19_3 0.00000000 0.00000000 0.00000000 0.00000000 0.00000000 0.00000000
headTaxel19_4 -0.00047041 0.00494363 0.00424831 0.00000000 0.00000000 0.00000000
headTaxel19_5 0.00378290 0.00989520 0.00398124 0.00000000 0.00000000 0.00000000
headTaxel19_7 0.00425331 0.00495157 -0.00026707 0.00000000 0.00000000 0.00000000
headTaxel19_8 0.00472438 0.00000870 -0.00451542 0.00000000 0.00000000 0.00000000
headTaxel19_9 0.00519342 -0.00493362 -0.00876141 0.00000000 0.00000000 0.00000000
headTaxel19_11 0.00047041 -0.00494363 -0.00424831 0.00000000 0.00000000 0.00000000
headTaxel20_0 -0.00072849 -0.00481542 -0.00435444 0.00000000 0.00000000 0.00000000
headTaxel20_1 -0.00498232 -0.00964206 -0.00320667 0.00000000 0.00000000 0.00000000
headTaxel20_2 -0.00425383 -0.00482664 0.00114777 0.00000000 0.00000000 0.00000000
headTaxel20_3 0.00000000 0.00000000 0.00000000 0.00000000 0.00000000 0.00000000
headTaxel20_4 -0.00352523 -0.00001048 0.00550287 0.00000000 0.00000000 0.00000000
headTaxel20_5 -0.00279673 0.00480494 0.00985730 0.00000000 0.00000000 0.00000000
headTaxel20_7 0.00072849 0.00481542 0.00435444 0.00000000 0.00000000 0.00000000
headTaxel20_8 0.00425383 0.00482664 -0.00114777 0.00000000 0.00000000 0.00000000
headTaxel20_9 0.00777699 0.00483584 -0.00664887 0.00000000 0.00000000 0.00000000
headTaxel20_11 0.00352523 0.00001048 -0.00550287 0.00000000 0.00000000 0.00000000
headTaxel21_0 -0.00143201 -0.00454613 0.00446791 0.00000000 0.00000000 0.00000000
headTaxel21_1 0.00165664 -0.00455370 0.01022717 0.00000000 0.00000000 0.00000000
headTaxel21_2 0.00308865 -0.00000758 0.00575926 0.00000000 0.00000000 0.00000000
headTaxel21_3 0.00000000 0.00000000 0.00000000 0.00000000 0.00000000 0.00000000
headTaxel21_4 0.00452087 0.00453925 0.00129067 0.00000000 0.00000000 0.00000000
headTaxel21_5 0.00595288 0.00908537 -0.00317723 0.00000000 0.00000000 0.00000000
headTaxel21_7 0.00143201 0.00454613 -0.00446791 0.00000000 0.00000000 0.00000000
headTaxel21_8 -0.00308865 0.00000758 -0.00575926 0.00000000 0.00000000 0.00000000
headTaxel21_9 -0.00760750 -0.00453047 -0.00704806 0.00000000 0.00000000 0.00000000
headTaxel21_11 -0.00452087 -0.00453925 -0.00129067 0.00000000 0.00000000 0.00000000
headTaxel22_0 -0.00424307 -0.00484125 -0.00111298 0.00000000 0.00000000 0.00000000
headTaxel22_1 -0.00487699 -0.00969080 0.00322164 0.00000000 0.00000000 0.00000000
headTaxel22_2 -0.00063392 -0.00484955 0.00433462 0.00000000 0.00000000 0.00000000
headTaxel22_3 0.00000000 0.00000000 0.00000000 0.00000000 0.00000000 0.00000000
headTaxel22_4 0.00360980 -0.00000755 0.00544777 0.00000000 0.00000000 0.00000000
headTaxel22_5 0.00785287 0.00483370 0.00656075 0.00000000 0.00000000 0.00000000
headTaxel22_7 0.00424307 0.00484125 0.00111298 0.00000000 0.00000000 0.00000000
headTaxel22_8 0.00063392 0.00484955 -0.00433462 0.00000000 0.00000000 0.00000000
headTaxel22_9 -0.00297509 0.00485581 -0.00977980 0.00000000 0.00000000 0.00000000
headTaxel22_11 -0.00360980 0.00000755 -0.00544777 0.00000000 0.00000000 0.00000000
headTaxel23_0 -0.00291396 0.00000817 -0.00584712 0.00000000 0.00000000 0.00000000
headTaxel23_1 -0.00655760 -0.00509493 -0.00768864 0.00000000 0.00000000 0.00000000
headTaxel23_2 -0.00364364 -0.00510310 -0.00184152 0.00000000 0.00000000 0.00000000
headTaxel23_3 0.00000000 0.00000000 0.00000000 0.00000000 0.00000000 0.00000000
headTaxel23_4 -0.00072923 -0.00511127 0.00400650 0.00000000 0.00000000 0.00000000
headTaxel23_5 0.00218473 -0.00511943 0.00985363 0.00000000 0.00000000 0.00000000
headTaxel23_7 0.00291396 -0.00000817 0.00584712 0.00000000 0.00000000 0.00000000
headTaxel23_8 0.00364364 0.00510310 0.00184152 0.00000000 0.00000000 0.00000000
headTaxel23_9 0.00437171 0.01021166 -0.00216441 0.00000000 0.00000000 0.00000000
headTaxel23_11 0.00072923 0.00511127 -0.00400650 0.00000000 0.00000000 0.00000000
headTaxel24_0 -0.00090103 -0.00537388 -0.00360412 0.00000000 0.00000000 0.00000000
headTaxel24_1 -0.00339590 -0.01076034 -0.00087091 0.00000000 0.00000000 0.00000000
headTaxel24_2 -0.00249487 -0.00538647 0.00273322 0.00000000 0.00000000 0.00000000
headTaxel24_3 0.00000000 0.00000000 0.00000000 0.00000000 0.00000000 0.00000000
headTaxel24_4 -0.00159370 -0.00001177 0.00633789 0.00000000 0.00000000 0.00000000
headTaxel24_5 -0.00069267 0.00536210 0.00994201 0.00000000 0.00000000 0.00000000
headTaxel24_7 0.00090103 0.00537388 0.00360412 0.00000000 0.00000000 0.00000000
headTaxel24_8 0.00249487 0.00538647 -0.00273322 0.00000000 0.00000000 0.00000000
headTaxel24_9 0.00408749 0.00539681 -0.00906870 0.00000000 0.00000000 0.00000000
headTaxel24_11 0.00159370 0.00001177 -0.00633789 0.00000000 0.00000000 0.00000000
headTaxel28_0 0.00074827 -0.00548066 -0.00347600 0.00000000 0.00000000 0.00000000
headTaxel28_1 -0.00225716 -0.01097321 -0.00160299 0.00000000 0.00000000 0.00000000
headTaxel28_2 -0.00300543 -0.00549255 0.00187301 0.00000000 0.00000000 0.00000000
headTaxel28_3 0.00000000 0.00000000 0.00000000 0.00000000 0.00000000 0.00000000
headTaxel28_4 -0.00375382 -0.00001105 0.00534954 0.00000000 0.00000000 0.00000000
headTaxel28_5 -0.00450209 0.00546960 0.00882554 0.00000000 0.00000000 0.00000000
headTaxel28_7 -0.00074827 0.00548066 0.00347600 0.00000000 0.00000000 0.00000000
headTaxel28_8 0.00300543 0.00549255 -0.00187301 0.00000000 0.00000000 0.00000000
headTaxel28_9 0.00675746 0.00550214 -0.00722064 0.00000000 0.00000000 0.00000000
headTaxel28_11 0.00375382 0.00001105 -0.00534954 0.00000000 0.00000000 0.00000000
headTaxel29_0 -0.00367111 -0.00512413 0.00171647 0.00000000 0.00000000 0.00000000
headTaxel29_1 -0.00678529 -0.00513366 0.00746197 0.00000000 0.00000000 0.00000000
headTaxel29_2 -0.00311418 -0.00000953 0.00574549 0.00000000 0.00000000 0.00000000
headTaxel29_3 0.00000000 0.00000000 0.00000000 0.00000000 0.00000000 0.00000000
headTaxel29_4 0.00055750 0.00511539 0.00402876 0.00000000 0.00000000 0.00000000
headTaxel29_5 0.00422861 0.01023952 0.00231229 0.00000000 0.00000000 0.00000000
headTaxel29_7 0.00367111 0.00512413 -0.00171647 0.00000000 0.00000000 0.00000000
headTaxel29_8 0.00311418 0.00000953 -0.00574549 0.00000000 0.00000000 0.00000000
headTaxel29_9 0.00255600 -0.00510450 -0.00977166 0.00000000 0.00000000 0.00000000
headTaxel29_11 -0.00055750 -0.00511539 -0.00402876 0.00000000 0.00000000 0.00000000
headTaxel31_0 -0.00284990 -0.00548466 -0.00211581 0.00000000 0.00000000 0.00000000
headTaxel31_1 -0.00236596 -0.01097950 0.00138867 0.00000000 0.00000000 0.00000000
headTaxel31_2 0.00048394 -0.00549484 0.00350448 0.00000000 0.00000000 0.00000000
headTaxel31_3 0.00000000 0.00000000 0.00000000 0.00000000 0.00000000 0.00000000
headTaxel31_4 0.00333428 -0.00000934 0.00562062 0.00000000 0.00000000 0.00000000
headTaxel31_5 0.00618419 0.00547531 0.00773643 0.00000000 0.00000000 0.00000000
headTaxel31_7 0.00284990 0.00548466 0.00211581 0.00000000 0.00000000 0.00000000
headTaxel31_8 -0.00048394 0.00549484 -0.00350448 0.00000000 0.00000000 0.00000000
headTaxel31_9 -0.00381721 0.00550273 -0.00912268 0.00000000 0.00000000 0.00000000
headTaxel31_11 -0.00333428 0.00000934 -0.00562062 0.00000000 0.00000000 0.00000000

